EVENT 0 Wed Apr  4 20:22:35 2018
  Startup
runnum 33014
scannum 1
date 20180404
time 202327
scan_type 1
scan_start   0.00
scan_stop 250.00
scan_step   2.00
run_tsent 2210
run_evcnt 2210
run_ercnt 0
run_tocnt 0
runnum 33014
scannum 2
date 20180404
time 202410
scan_type 3
scan_start   0.00
scan_stop  63.00
scan_step   1.00
run_tsent 4258
run_evcnt 4258
run_ercnt 0
run_tocnt 0
EVENT 1 Wed Apr  4 20:24:13 2018
  Shutdown
