EVENT 0 Wed Apr  4 12:36:09 2018
  Startup
runnum 32996
scannum 1
date 20180404
time 123835
scan_type 1
scan_start   0.00
scan_stop 250.00
scan_step   2.00
run_tsent 2307
run_evcnt 2275
run_ercnt 0
run_tocnt 8
runnum 32996
scannum 2
date 20180404
time 123906
scan_type 3
scan_start   0.00
scan_stop  63.00
scan_step   1.00
run_tsent 4355
run_evcnt 4323
run_ercnt 0
run_tocnt 8
EVENT 1 Wed Apr  4 15:13:32 2018
  Shutdown
