EVENT 0 Wed Feb 14 14:38:31 2018
  Startup
runnum 32826
scannum 1
date 20180214
time 144052
scan_type 1
scan_start   0.00
scan_stop 250.00
scan_step   2.00
run_tsent 4036
run_evcnt 3998
run_ercnt 0
run_tocnt 35
runnum 32826
scannum 2
date 20180214
time 144226
scan_type 3
scan_start   0.00
scan_stop  63.00
scan_step   1.00
run_tsent 6084
run_evcnt 5992
run_ercnt 0
run_tocnt 98
EVENT 1 Wed Feb 14 14:43:27 2018
  Shutdown
