EVENT 0 Fri Feb  9 09:11:48 2018
  Startup
runnum 32785
scannum 1
date 20180209
time 91250
scan_type 1
scan_start   0.00
scan_stop 250.00
scan_step   2.00
run_tsent 2244
run_evcnt 2244
run_ercnt 0
run_tocnt 0
runnum 32785
scannum 2
date 20180209
time 91327
scan_type 3
scan_start   0.00
scan_stop  63.00
scan_step   1.00
run_tsent 4292
run_evcnt 4274
run_ercnt 0
run_tocnt 10
runnum 32785
scannum 3
date 20180209
time 91535
scan_type 1
scan_start   0.00
scan_stop  89.00
scan_step   1.00
run_tsent 5028
run_evcnt 4864
run_ercnt 0
run_tocnt 29
runnum 32785
scannum 4
date 20180209
time 91602
scan_type 1
scan_start   0.00
scan_stop 105.00
scan_step   1.00
run_tsent 8180
run_evcnt 7846
run_ercnt 0
run_tocnt 66
runnum 32785
scannum 5
date 20180209
time 91626
scan_type 1
scan_start   0.00
scan_stop 120.00
scan_step   1.00
run_tsent 9988
run_evcnt 9470
run_ercnt 0
run_tocnt 98
runnum 32785
scannum 6
date 20180209
time 91958
scan_type 1
scan_start   0.00
scan_stop  89.00
scan_step   1.00
run_tsent 10868
run_evcnt 10251
run_ercnt 0
run_tocnt 113
runnum 32785
scannum 7
date 20180209
time 92010
scan_type 1
scan_start   0.00
scan_stop 105.00
scan_step   1.00
run_tsent 11316
run_evcnt 10585
run_ercnt 0
run_tocnt 126
runnum 32785
scannum 8
date 20180209
time 92021
scan_type 1
scan_start   0.00
scan_stop 120.00
scan_step   1.00
run_tsent 11444
run_evcnt 10647
run_ercnt 0
run_tocnt 138
runnum 32785
scannum 9
date 20180209
time 92405
scan_type 1
scan_start   0.00
scan_stop  89.00
scan_step   1.00
run_tsent 27190
run_evcnt 26015
run_ercnt 0
run_tocnt 263
runnum 32785
scannum 10
date 20180209
time 92611
scan_type 1
scan_start   0.00
scan_stop 105.00
scan_step   1.00
run_tsent 45590
run_evcnt 43941
run_ercnt 0
run_tocnt 424
runnum 32785
scannum 11
date 20180209
time 92833
scan_type 1
scan_start   0.00
scan_stop 120.00
scan_step   1.00
run_tsent 64918
run_evcnt 62457
run_ercnt 0
run_tocnt 659
EVENT 1 Fri Feb  9 09:28:54 2018
  Shutdown
