EVENT 0 Wed Feb 14 14:28:11 2018
  Startup
runnum 32823
scannum 1
date 20180214
time 143007
scan_type 1
scan_start   0.00
scan_stop 250.00
scan_step   2.00
run_tsent 4035
run_evcnt 4035
run_ercnt 0
run_tocnt 0
runnum 32823
scannum 2
date 20180214
time 143100
scan_type 3
scan_start   0.00
scan_stop  63.00
scan_step   1.00
run_tsent 6083
run_evcnt 6083
run_ercnt 0
run_tocnt 0
EVENT 1 Wed Feb 14 14:31:53 2018
  Shutdown
