EVENT 0 Mon Feb 26 15:52:39 2018
  Startup
runnum 32847
scannum 1
date 20180226
time 155804
scan_type 20
scan_start   0.00
scan_stop  63.00
scan_step   1.00
run_tsent 6437
run_evcnt 6437
run_ercnt 0
run_tocnt 0
EVENT 1 Mon Feb 26 15:59:20 2018
  Shutdown
