EVENT 0 Wed Mar 28 16:46:10 2018
  Startup
runnum 32989
scannum 1
date 20180328
time 164839
scan_type 1
scan_start   0.00
scan_stop 250.00
scan_step   2.00
run_tsent 2026
run_evcnt 1933
run_ercnt 0
run_tocnt 93
runnum 32989
scannum 2
date 20180328
time 164942
scan_type 3
scan_start   0.00
scan_stop  63.00
scan_step   1.00
run_tsent 4074
run_evcnt 3861
run_ercnt 0
run_tocnt 202
runnum 32989
scannum 3
date 20180328
time 165145
scan_type 1
scan_start   0.00
scan_stop  89.00
scan_step   1.00
run_tsent 12954
run_evcnt 12579
run_ercnt 0
run_tocnt 362
runnum 32989
scannum 4
date 20180328
time 165329
scan_type 1
scan_start   0.00
scan_stop 105.00
scan_step   1.00
run_tsent 25050
run_evcnt 24495
run_ercnt 0
run_tocnt 540
runnum 32989
scannum 5
date 20180328
time 165524
scan_type 1
scan_start   0.00
scan_stop 120.00
scan_step   1.00
run_tsent 39546
run_evcnt 38797
run_ercnt 0
run_tocnt 734
EVENT 1 Wed Mar 28 16:56:49 2018
  Shutdown
