EVENT 0 Tue Feb 13 15:35:58 2018
  Startup
runnum 32816
scannum 1
date 20180213
time 154534
scan_type 1
scan_start   0.00
scan_stop 250.00
scan_step   2.00
run_tsent 1542
run_evcnt 1542
run_ercnt 0
run_tocnt 0
runnum 32816
scannum 2
date 20180213
time 154628
scan_type 3
scan_start   0.00
scan_stop  63.00
scan_step   1.00
run_tsent 3590
run_evcnt 3590
run_ercnt 0
run_tocnt 0
