EVENT 0 Fri Feb  9 13:28:40 2018
  Startup
runnum 32792
scannum 1
date 20180209
time 132941
scan_type 1
scan_start   0.00
scan_stop 250.00
scan_step   2.00
run_tsent 228
run_evcnt 180
run_ercnt 0
run_tocnt 4
runnum 32792
scannum 2
date 20180209
time 133017
scan_type 3
scan_start   0.00
scan_stop  63.00
scan_step   1.00
run_tsent 2276
run_evcnt 2124
run_ercnt 0
run_tocnt 26
runnum 32792
scannum 3
date 20180209
time 133305
scan_type 1
scan_start   5.00
scan_stop 255.00
scan_step   1.00
run_tsent 6708
run_evcnt 5721
run_ercnt 0
run_tocnt 187
runnum 32792
scannum 4
date 20180209
time 133332
scan_type 1
scan_start   5.00
scan_stop 255.00
scan_step   1.00
run_tsent 9236
run_evcnt 8065
run_ercnt 0
run_tocnt 226
runnum 32792
scannum 5
date 20180209
time 133419
scan_type 1
scan_start   5.00
scan_stop 255.00
scan_step   1.00
run_tsent 14500
run_evcnt 13079
run_ercnt 0
run_tocnt 306
runnum 32792
scannum 6
date 20180209
time 133449
scan_type 1
scan_start   5.00
scan_stop 255.00
scan_step   1.00
run_tsent 17748
run_evcnt 15862
run_ercnt 0
run_tocnt 397
runnum 32792
scannum 7
date 20180209
time 133614
scan_type 1
scan_start   5.00
scan_stop 255.00
scan_step   1.00
run_tsent 27876
run_evcnt 25077
run_ercnt 0
run_tocnt 631
runnum 32792
scannum 8
date 20180209
time 133715
scan_type 1
scan_start   5.00
scan_stop 255.00
scan_step   1.00
run_tsent 36420
run_evcnt 33356
run_ercnt 0
run_tocnt 718
runnum 32792
scannum 9
date 20180209
time 133814
scan_type 1
scan_start   5.00
scan_stop 255.00
scan_step   1.00
run_tsent 42340
run_evcnt 38863
run_ercnt 0
run_tocnt 809
runnum 32792
scannum 10
date 20180209
time 133830
scan_type 1
scan_start   5.00
scan_stop 255.00
scan_step   1.00
run_tsent 43460
run_evcnt 39967
run_ercnt 0
run_tocnt 811
runnum 32792
scannum 11
date 20180209
time 133852
scan_type 1
scan_start   5.00
scan_stop 255.00
scan_step   1.00
run_tsent 45300
run_evcnt 41718
run_ercnt 0
run_tocnt 842
runnum 32792
scannum 12
date 20180209
time 133914
scan_type 1
scan_start   5.00
scan_stop 255.00
scan_step   1.00
run_tsent 47540
run_evcnt 43655
run_ercnt 0
run_tocnt 902
runnum 32792
scannum 13
date 20180209
time 133932
scan_type 1
scan_start   5.00
scan_stop 255.00
scan_step   1.00
run_tsent 48692
run_evcnt 44657
run_ercnt 0
run_tocnt 934
runnum 32792
scannum 14
date 20180209
time 134048
scan_type 1
scan_start   5.00
scan_stop 255.00
scan_step   1.00
run_tsent 57140
run_evcnt 52495
run_ercnt 0
run_tocnt 1098
runnum 32792
scannum 15
date 20180209
time 134214
scan_type 1
scan_start   5.00
scan_stop 255.00
scan_step   1.00
run_tsent 66948
run_evcnt 62072
run_ercnt 0
run_tocnt 1182
runnum 32792
scannum 16
date 20180209
time 134243
scan_type 1
scan_start   5.00
scan_stop 255.00
scan_step   1.00
run_tsent 70484
run_evcnt 65411
run_ercnt 0
run_tocnt 1224
runnum 32792
scannum 17
date 20180209
time 134427
scan_type 1
scan_start   5.00
scan_stop 255.00
scan_step   1.00
run_tsent 82596
run_evcnt 77003
run_ercnt 0
run_tocnt 1379
runnum 32792
scannum 18
date 20180209
time 134443
scan_type 1
scan_start   5.00
scan_stop 255.00
scan_step   1.00
run_tsent 83844
run_evcnt 78145
run_ercnt 0
run_tocnt 1408
runnum 32792
scannum 19
date 20180209
time 134555
scan_type 1
scan_start   5.00
scan_stop 255.00
scan_step   1.00
run_tsent 92852
run_evcnt 86845
run_ercnt 0
run_tocnt 1519
runnum 32792
scannum 20
date 20180209
time 134715
scan_type 1
scan_start   5.00
scan_stop 255.00
scan_step   1.00
run_tsent 103188
run_evcnt 96903
run_ercnt 0
run_tocnt 1633
runnum 32792
scannum 21
date 20180209
time 134725
scan_type 1
scan_start   5.00
scan_stop 255.00
scan_step   1.00
run_tsent 103396
run_evcnt 97093
run_ercnt 0
run_tocnt 1639
runnum 32792
scannum 22
date 20180209
time 134757
scan_type 1
scan_start   5.00
scan_stop 255.00
scan_step   1.00
run_tsent 107332
run_evcnt 100846
run_ercnt 0
run_tocnt 1686
EVENT 1 Fri Feb  9 14:01:19 2018
  Shutdown
