{
    "configuration": {
        "module": [
            {
                "chips": [
                    {
                        "address": 16,
                        "reg_01": 101518605,
                        "reg_02": 269029440,
                        "reg_03": 1577731,
                        "reg_06": 72834,
                        "reg_07": 2390753280,
                        "reg_10": 0,
                        "reg_11": 0,
                        "reg_12": 0,
                        "reg_13": 0,
                        "reg_14": 0,
                        "reg_15": 0,
                        "reg_16": 0,
                        "reg_17": 0,
                        "reg_20": 7940,
                        "reg_21": 68,
                        "reg_22": 2,
                        "reg_23": 0,
                        "reg_40": 2081510710,
                        "reg_41": 897456319,
                        "reg_42": 699821369,
                        "reg_43": 1122381923,
                        "reg_44": 3509854957,
                        "reg_45": 1883338279,
                        "reg_46": 2320206421,
                        "reg_47": 3397456452,
                        "reg_48": 2168641402,
                        "reg_49": 3035830638,
                        "reg_4a": 108717658,
                        "reg_4b": 418338337,
                        "reg_4c": 3092703186,
                        "reg_4d": 327314248,
                        "reg_4e": 1228353621,
                        "reg_4f": 566238733,
                        "reg_50": 1969156208,
                        "reg_51": 1948278837,
                        "reg_52": 2760116658,
                        "reg_53": 408252825,
                        "reg_54": 1455762486,
                        "reg_55": 266078076,
                        "reg_56": 2285197216,
                        "reg_57": 2820252856,
                        "reg_58": 1734850659,
                        "reg_59": 1269011600,
                        "reg_5a": 346063728,
                        "reg_5b": 2879672001,
                        "reg_5c": 323871737,
                        "reg_5d": 2577567802,
                        "reg_5e": 2321748741,
                        "reg_5f": 596020750,
                        "reg_60": 3757829887,
                        "reg_61": 4294967292,
                        "reg_62": 3489128447,
                        "reg_63": 3670015991,
                        "reg_64": 4261380071,
                        "reg_65": 4294950879,
                        "reg_66": 4194303999,
                        "reg_67": 4211072997,
                        "reg_68": 4294967295,
                        "reg_69": 4294967295,
                        "reg_6a": 4294967295,
                        "reg_6b": 4294967295,
                        "reg_6c": 4294967295,
                        "reg_6d": 4294967295,
                        "reg_6e": 4294967295,
                        "reg_6f": 4294967295
                    },
                    {
                        "address": 17,
                        "reg_01": 135073037,
                        "reg_02": 269029440,
                        "reg_03": 1577987,
                        "reg_06": 71168,
                        "reg_07": 2399141888,
                        "reg_10": 0,
                        "reg_11": 0,
                        "reg_12": 0,
                        "reg_13": 0,
                        "reg_14": 0,
                        "reg_15": 0,
                        "reg_16": 0,
                        "reg_17": 0,
                        "reg_20": 7939,
                        "reg_21": 68,
                        "reg_22": 2,
                        "reg_23": 0,
                        "reg_40": 2181268689,
                        "reg_41": 903043871,
                        "reg_42": 3499972113,
                        "reg_43": 4026216694,
                        "reg_44": 1089986943,
                        "reg_45": 3306742743,
                        "reg_46": 1156661810,
                        "reg_47": 1051725117,
                        "reg_48": 2119497773,
                        "reg_49": 269893589,
                        "reg_4a": 1901109109,
                        "reg_4b": 1861493875,
                        "reg_4c": 341516831,
                        "reg_4d": 3448294670,
                        "reg_4e": 4029722837,
                        "reg_4f": 3249681745,
                        "reg_50": 764400785,
                        "reg_51": 4166646508,
                        "reg_52": 537789120,
                        "reg_53": 3381817988,
                        "reg_54": 4036637922,
                        "reg_55": 1740109806,
                        "reg_56": 3902007677,
                        "reg_57": 2471301139,
                        "reg_58": 1633800210,
                        "reg_59": 4210686433,
                        "reg_5a": 1309738077,
                        "reg_5b": 3373342062,
                        "reg_5c": 3775475334,
                        "reg_5d": 395263913,
                        "reg_5e": 3389223915,
                        "reg_5f": 754008787,
                        "reg_60": 223337085,
                        "reg_61": 3135206854,
                        "reg_62": 2650532150,
                        "reg_63": 1601519342,
                        "reg_64": 1039102117,
                        "reg_65": 4017542253,
                        "reg_66": 2059293143,
                        "reg_67": 2642274923,
                        "reg_68": 4294967295,
                        "reg_69": 4294967295,
                        "reg_6a": 4294967295,
                        "reg_6b": 4294967295,
                        "reg_6c": 4294967295,
                        "reg_6d": 4294967295,
                        "reg_6e": 4294967295,
                        "reg_6f": 4294967295
                    },
                    {
                        "address": 18,
                        "reg_01": 135073037,
                        "reg_02": 269029440,
                        "reg_03": 1577731,
                        "reg_06": 71424,
                        "reg_07": 2373976064,
                        "reg_10": 0,
                        "reg_11": 0,
                        "reg_12": 0,
                        "reg_13": 0,
                        "reg_14": 0,
                        "reg_15": 0,
                        "reg_16": 0,
                        "reg_17": 0,
                        "reg_20": 7938,
                        "reg_21": 68,
                        "reg_22": 2,
                        "reg_23": 0,
                        "reg_40": 2587253175,
                        "reg_41": 1934946950,
                        "reg_42": 1413338127,
                        "reg_43": 862144337,
                        "reg_44": 2572565872,
                        "reg_45": 2286822263,
                        "reg_46": 2325112241,
                        "reg_47": 1610826510,
                        "reg_48": 1160981822,
                        "reg_49": 1164473735,
                        "reg_4a": 1214055479,
                        "reg_4b": 10041558,
                        "reg_4c": 1804867822,
                        "reg_4d": 71910196,
                        "reg_4e": 68625709,
                        "reg_4f": 435490918,
                        "reg_50": 2202050322,
                        "reg_51": 1734289268,
                        "reg_52": 1480783688,
                        "reg_53": 897582855,
                        "reg_54": 791970117,
                        "reg_55": 1407276008,
                        "reg_56": 2440337959,
                        "reg_57": 123754565,
                        "reg_58": 4080748143,
                        "reg_59": 2795764070,
                        "reg_5a": 2501428435,
                        "reg_5b": 4080315532,
                        "reg_5c": 2517718537,
                        "reg_5d": 2677586212,
                        "reg_5e": 285500458,
                        "reg_5f": 1653481628,
                        "reg_60": 4226217983,
                        "reg_61": 4273991611,
                        "reg_62": 4260364282,
                        "reg_63": 3758026748,
                        "reg_64": 4294438899,
                        "reg_65": 4294958527,
                        "reg_66": 2062940014,
                        "reg_67": 4026513407,
                        "reg_68": 4294967295,
                        "reg_69": 4294967295,
                        "reg_6a": 4294967295,
                        "reg_6b": 4294967295,
                        "reg_6c": 4294967295,
                        "reg_6d": 4294967295,
                        "reg_6e": 4294967295,
                        "reg_6f": 4294967295
                    },
                    {
                        "address": 19,
                        "reg_01": 101518605,
                        "reg_02": 269029440,
                        "reg_03": 1577731,
                        "reg_06": 79360,
                        "reg_07": 2518679552,
                        "reg_10": 0,
                        "reg_11": 0,
                        "reg_12": 0,
                        "reg_13": 0,
                        "reg_14": 0,
                        "reg_15": 0,
                        "reg_16": 0,
                        "reg_17": 0,
                        "reg_20": 7937,
                        "reg_21": 68,
                        "reg_22": 2,
                        "reg_23": 0,
                        "reg_40": 1172328849,
                        "reg_41": 2851684718,
                        "reg_42": 1089870274,
                        "reg_43": 2551233400,
                        "reg_44": 2406623990,
                        "reg_45": 673427311,
                        "reg_46": 904987983,
                        "reg_47": 1113780462,
                        "reg_48": 3603017506,
                        "reg_49": 1787766373,
                        "reg_4a": 131474243,
                        "reg_4b": 1832211327,
                        "reg_4c": 259471861,
                        "reg_4d": 787683270,
                        "reg_4e": 1596061498,
                        "reg_4f": 1584340897,
                        "reg_50": 852502080,
                        "reg_51": 2104843809,
                        "reg_52": 494754661,
                        "reg_53": 1311444003,
                        "reg_54": 2426232227,
                        "reg_55": 3780318850,
                        "reg_56": 4221444896,
                        "reg_57": 1063642214,
                        "reg_58": 863330833,
                        "reg_59": 2951874161,
                        "reg_5a": 126054967,
                        "reg_5b": 339809557,
                        "reg_5c": 653154082,
                        "reg_5d": 518141270,
                        "reg_5e": 850722310,
                        "reg_5f": 1300037207,
                        "reg_60": 3017363167,
                        "reg_61": 4110350905,
                        "reg_62": 3202330483,
                        "reg_63": 2880871871,
                        "reg_64": 2880420831,
                        "reg_65": 3073343467,
                        "reg_66": 4294942719,
                        "reg_67": 2748555231,
                        "reg_68": 4294967295,
                        "reg_69": 4294967295,
                        "reg_6a": 4294967295,
                        "reg_6b": 4294967295,
                        "reg_6c": 4294967295,
                        "reg_6d": 4294967295,
                        "reg_6e": 4294967295,
                        "reg_6f": 4294967295
                    },
                    {
                        "address": 20,
                        "reg_01": 135073037,
                        "reg_02": 269029440,
                        "reg_03": 1577475,
                        "reg_06": 73232,
                        "reg_07": 2535456768,
                        "reg_10": 0,
                        "reg_11": 0,
                        "reg_12": 0,
                        "reg_13": 0,
                        "reg_14": 0,
                        "reg_15": 0,
                        "reg_16": 0,
                        "reg_17": 0,
                        "reg_20": 3840,
                        "reg_21": 68,
                        "reg_22": 2,
                        "reg_23": 0,
                        "reg_40": 2525954590,
                        "reg_41": 3068063811,
                        "reg_42": 608634309,
                        "reg_43": 3160892743,
                        "reg_44": 4252266149,
                        "reg_45": 4234453353,
                        "reg_46": 2590758425,
                        "reg_47": 3783535786,
                        "reg_48": 1331925214,
                        "reg_49": 3762310852,
                        "reg_4a": 1155670932,
                        "reg_4b": 157368881,
                        "reg_4c": 87165917,
                        "reg_4d": 518323715,
                        "reg_4e": 928228926,
                        "reg_4f": 131565446,
                        "reg_50": 844436237,
                        "reg_51": 22106694,
                        "reg_52": 3275382225,
                        "reg_53": 272610835,
                        "reg_54": 3426356304,
                        "reg_55": 850137902,
                        "reg_56": 270060545,
                        "reg_57": 673733637,
                        "reg_58": 208877896,
                        "reg_59": 3007673475,
                        "reg_5a": 287710758,
                        "reg_5b": 469000550,
                        "reg_5c": 1953153484,
                        "reg_5d": 3837773069,
                        "reg_5e": 164308948,
                        "reg_5f": 372380888,
                        "reg_60": 1073301358,
                        "reg_61": 2024226361,
                        "reg_62": 3219093948,
                        "reg_63": 3489567740,
                        "reg_64": 3891920894,
                        "reg_65": 3153591931,
                        "reg_66": 2684092347,
                        "reg_67": 4260189940,
                        "reg_68": 4294967295,
                        "reg_69": 4294967295,
                        "reg_6a": 4294967295,
                        "reg_6b": 4294967295,
                        "reg_6c": 4294967295,
                        "reg_6d": 4294967295,
                        "reg_6e": 4294967295,
                        "reg_6f": 4294967295
                    },
                    {
                        "address": 21,
                        "reg_01": 135073037,
                        "reg_02": 269029440,
                        "reg_03": 1577475,
                        "reg_06": 73280,
                        "reg_07": 2520776704,
                        "reg_10": 0,
                        "reg_11": 0,
                        "reg_12": 0,
                        "reg_13": 0,
                        "reg_14": 0,
                        "reg_15": 0,
                        "reg_16": 0,
                        "reg_17": 0,
                        "reg_20": 7940,
                        "reg_21": 68,
                        "reg_22": 2,
                        "reg_23": 0,
                        "reg_40": 1397671933,
                        "reg_41": 1282789895,
                        "reg_42": 3344594751,
                        "reg_43": 3766703095,
                        "reg_44": 3764323487,
                        "reg_45": 871790023,
                        "reg_46": 6116462,
                        "reg_47": 1178496507,
                        "reg_48": 114365366,
                        "reg_49": 80350575,
                        "reg_4a": 2958284368,
                        "reg_4b": 813127829,
                        "reg_4c": 559239659,
                        "reg_4d": 2760184606,
                        "reg_4e": 393236799,
                        "reg_4f": 3523497792,
                        "reg_50": 1850827363,
                        "reg_51": 3759281402,
                        "reg_52": 2907787072,
                        "reg_53": 3111332690,
                        "reg_54": 605163337,
                        "reg_55": 287208721,
                        "reg_56": 1413808645,
                        "reg_57": 294010647,
                        "reg_58": 1395914104,
                        "reg_59": 3775931414,
                        "reg_5a": 4014304408,
                        "reg_5b": 1353783676,
                        "reg_5c": 834898128,
                        "reg_5d": 1439834853,
                        "reg_5e": 1787356462,
                        "reg_5f": 4028861729,
                        "reg_60": 2104408044,
                        "reg_61": 3907968366,
                        "reg_62": 4018133725,
                        "reg_63": 2080276220,
                        "reg_64": 4290477247,
                        "reg_65": 4227854331,
                        "reg_66": 3661332471,
                        "reg_67": 2075581917,
                        "reg_68": 4294967295,
                        "reg_69": 4294967295,
                        "reg_6a": 4294967295,
                        "reg_6b": 4294967295,
                        "reg_6c": 4294967295,
                        "reg_6d": 4294967295,
                        "reg_6e": 4294967295,
                        "reg_6f": 4294967295
                    },
                    {
                        "address": 22,
                        "reg_01": 135073037,
                        "reg_02": 269029440,
                        "reg_03": 1576707,
                        "reg_06": 72960,
                        "reg_07": 2269118464,
                        "reg_10": 0,
                        "reg_11": 0,
                        "reg_12": 0,
                        "reg_13": 0,
                        "reg_14": 0,
                        "reg_15": 0,
                        "reg_16": 0,
                        "reg_17": 0,
                        "reg_20": 7939,
                        "reg_21": 68,
                        "reg_22": 2,
                        "reg_23": 0,
                        "reg_40": 1482594465,
                        "reg_41": 2321988472,
                        "reg_42": 572690252,
                        "reg_43": 1434818898,
                        "reg_44": 2006580590,
                        "reg_45": 2257069177,
                        "reg_46": 980939403,
                        "reg_47": 881852710,
                        "reg_48": 1165432176,
                        "reg_49": 3096295315,
                        "reg_4a": 779678617,
                        "reg_4b": 1054176757,
                        "reg_4c": 1504130964,
                        "reg_4d": 366569617,
                        "reg_4e": 1233663034,
                        "reg_4f": 3913505698,
                        "reg_50": 2204386341,
                        "reg_51": 1730589176,
                        "reg_52": 839262281,
                        "reg_53": 2187682614,
                        "reg_54": 589568579,
                        "reg_55": 1549824106,
                        "reg_56": 2467778678,
                        "reg_57": 842991954,
                        "reg_58": 917324646,
                        "reg_59": 1516099470,
                        "reg_5a": 341851003,
                        "reg_5b": 1397678974,
                        "reg_5c": 4104930642,
                        "reg_5d": 1151318717,
                        "reg_5e": 4083110267,
                        "reg_5f": 2199789160,
                        "reg_60": 4294703087,
                        "reg_61": 4294901746,
                        "reg_62": 3719819263,
                        "reg_63": 2147483647,
                        "reg_64": 4294966783,
                        "reg_65": 4026531835,
                        "reg_66": 3875202799,
                        "reg_67": 3949978351,
                        "reg_68": 4294967295,
                        "reg_69": 4294967295,
                        "reg_6a": 4294967295,
                        "reg_6b": 4294967295,
                        "reg_6c": 4294967295,
                        "reg_6d": 4294967295,
                        "reg_6e": 4294967295,
                        "reg_6f": 4294967295
                    },
                    {
                        "address": 23,
                        "reg_01": 101518605,
                        "reg_02": 269029440,
                        "reg_03": 1577731,
                        "reg_06": 71296,
                        "reg_07": 2367684608,
                        "reg_10": 0,
                        "reg_11": 0,
                        "reg_12": 0,
                        "reg_13": 0,
                        "reg_14": 0,
                        "reg_15": 0,
                        "reg_16": 0,
                        "reg_17": 0,
                        "reg_20": 7938,
                        "reg_21": 68,
                        "reg_22": 2,
                        "reg_23": 0,
                        "reg_40": 2510714240,
                        "reg_41": 1503653420,
                        "reg_42": 1738978805,
                        "reg_43": 2578355542,
                        "reg_44": 1772063904,
                        "reg_45": 1418052480,
                        "reg_46": 3157162384,
                        "reg_47": 2493326394,
                        "reg_48": 1677585845,
                        "reg_49": 1234416530,
                        "reg_4a": 940195394,
                        "reg_4b": 2238091715,
                        "reg_4c": 3876027366,
                        "reg_4d": 1791563084,
                        "reg_4e": 1248512151,
                        "reg_4f": 2214084659,
                        "reg_50": 20862074,
                        "reg_51": 94966753,
                        "reg_52": 3065222891,
                        "reg_53": 56443121,
                        "reg_54": 3396774066,
                        "reg_55": 1830045815,
                        "reg_56": 1734260793,
                        "reg_57": 950441752,
                        "reg_58": 2377676130,
                        "reg_59": 2025481101,
                        "reg_5a": 2546240330,
                        "reg_5b": 877588852,
                        "reg_5c": 2062565794,
                        "reg_5d": 3333854917,
                        "reg_5e": 2805160313,
                        "reg_5f": 2004488501,
                        "reg_60": 4294967295,
                        "reg_61": 4025483247,
                        "reg_62": 4294705119,
                        "reg_63": 3758096377,
                        "reg_64": 4294963183,
                        "reg_65": 4293902335,
                        "reg_66": 3892314111,
                        "reg_67": 4294967295,
                        "reg_68": 4294967295,
                        "reg_69": 4294967295,
                        "reg_6a": 4294967295,
                        "reg_6b": 4294967295,
                        "reg_6c": 4294967295,
                        "reg_6d": 4294967295,
                        "reg_6e": 4294967295,
                        "reg_6f": 4294967295
                    },
                    {
                        "address": 24,
                        "reg_01": 135073037,
                        "reg_02": 269029440,
                        "reg_03": 1578243,
                        "reg_06": 72208,
                        "reg_07": 2533883904,
                        "reg_10": 0,
                        "reg_11": 0,
                        "reg_12": 0,
                        "reg_13": 0,
                        "reg_14": 0,
                        "reg_15": 0,
                        "reg_16": 0,
                        "reg_17": 0,
                        "reg_20": 7937,
                        "reg_21": 68,
                        "reg_22": 2,
                        "reg_23": 0,
                        "reg_40": 4284752221,
                        "reg_41": 879089186,
                        "reg_42": 1196565247,
                        "reg_43": 1912627908,
                        "reg_44": 4134622048,
                        "reg_45": 368612595,
                        "reg_46": 373564658,
                        "reg_47": 712855411,
                        "reg_48": 819033631,
                        "reg_49": 18207589,
                        "reg_4a": 3366306388,
                        "reg_4b": 421824835,
                        "reg_4c": 2646822938,
                        "reg_4d": 1962672385,
                        "reg_4e": 1344410988,
                        "reg_4f": 3526837605,
                        "reg_50": 1125304899,
                        "reg_51": 1399876766,
                        "reg_52": 266560593,
                        "reg_53": 1395613716,
                        "reg_54": 1865929217,
                        "reg_55": 1737745680,
                        "reg_56": 1663849079,
                        "reg_57": 2000688023,
                        "reg_58": 2022529300,
                        "reg_59": 851751350,
                        "reg_5a": 1771396932,
                        "reg_5b": 2115212584,
                        "reg_5c": 2335644465,
                        "reg_5d": 137519677,
                        "reg_5e": 2742630025,
                        "reg_5f": 910239290,
                        "reg_60": 4261214014,
                        "reg_61": 2885541247,
                        "reg_62": 3219126238,
                        "reg_63": 2147405726,
                        "reg_64": 4022337271,
                        "reg_65": 4294956983,
                        "reg_66": 3220962799,
                        "reg_67": 4294967039,
                        "reg_68": 4294967295,
                        "reg_69": 4294967295,
                        "reg_6a": 4294967295,
                        "reg_6b": 4294967295,
                        "reg_6c": 4294967295,
                        "reg_6d": 4294967295,
                        "reg_6e": 4294967295,
                        "reg_6f": 4294967295
                    },
                    {
                        "address": 25,
                        "reg_01": 135073037,
                        "reg_02": 269029440,
                        "reg_03": 1577475,
                        "reg_06": 76416,
                        "reg_07": 2503999488,
                        "reg_10": 0,
                        "reg_11": 0,
                        "reg_12": 0,
                        "reg_13": 0,
                        "reg_14": 0,
                        "reg_15": 0,
                        "reg_16": 0,
                        "reg_17": 0,
                        "reg_20": 3840,
                        "reg_21": 68,
                        "reg_22": 2,
                        "reg_23": 0,
                        "reg_40": 3077848358,
                        "reg_41": 303480582,
                        "reg_42": 615278178,
                        "reg_43": 892227886,
                        "reg_44": 1662992963,
                        "reg_45": 2418422579,
                        "reg_46": 1968318173,
                        "reg_47": 2291791697,
                        "reg_48": 1346726814,
                        "reg_49": 4247471809,
                        "reg_4a": 1393555813,
                        "reg_4b": 829628998,
                        "reg_4c": 420816054,
                        "reg_4d": 867099475,
                        "reg_4e": 621285925,
                        "reg_4f": 1155549058,
                        "reg_50": 970117443,
                        "reg_51": 2256479713,
                        "reg_52": 2182411141,
                        "reg_53": 2304177211,
                        "reg_54": 525810705,
                        "reg_55": 88517475,
                        "reg_56": 2021033336,
                        "reg_57": 4111966804,
                        "reg_58": 2873153864,
                        "reg_59": 2968990694,
                        "reg_5a": 3654776345,
                        "reg_5b": 890479746,
                        "reg_5c": 1956001556,
                        "reg_5d": 2215081877,
                        "reg_5e": 3293910753,
                        "reg_5f": 4134770777,
                        "reg_60": 4006607835,
                        "reg_61": 4160552943,
                        "reg_62": 4294393342,
                        "reg_63": 3724539901,
                        "reg_64": 4160220639,
                        "reg_65": 2013265851,
                        "reg_66": 4286569975,
                        "reg_67": 2139095039,
                        "reg_68": 4294967295,
                        "reg_69": 4294967295,
                        "reg_6a": 4294967295,
                        "reg_6b": 4294967295,
                        "reg_6c": 4294967295,
                        "reg_6d": 4294967295,
                        "reg_6e": 4294967295,
                        "reg_6f": 4294967295
                    }
                ],
                "hcc": {
                    "address": 3,
                    "regs": [
                        523973,
                        3766583296,
                        2112,
                        1047552,
                        1072694271,
                        1047552,
                        1072694271,
                        1047552,
                        0,
                        969831324,
                        197428,
                        17105922,
                        2281736192,
                        7689557,
                        4293986303,
                        4294967295,
                        0,
                        0
                    ]
                },
                "pos_to_addr": [
                    16,
                    17,
                    18,
                    19,
                    20,
                    21,
                    22,
                    23,
                    24,
                    25
                ],
                "pos_to_id": [
                    0,
                    1,
                    2,
                    3,
                    4,
                    5,
                    6,
                    7,
                    8,
                    9
                ]
            },
            {
                "chips": [
                    {
                        "address": 16,
                        "reg_01": 135073037,
                        "reg_02": 269029440,
                        "reg_03": 1577731,
                        "reg_06": 72834,
                        "reg_07": 2390753280,
                        "reg_10": 0,
                        "reg_11": 0,
                        "reg_12": 0,
                        "reg_13": 0,
                        "reg_14": 0,
                        "reg_15": 0,
                        "reg_16": 0,
                        "reg_17": 0,
                        "reg_20": 7940,
                        "reg_21": 68,
                        "reg_22": 2,
                        "reg_23": 0,
                        "reg_40": 4265657577,
                        "reg_41": 2303352145,
                        "reg_42": 2970763106,
                        "reg_43": 1634088290,
                        "reg_44": 1428382513,
                        "reg_45": 4008673148,
                        "reg_46": 3832824691,
                        "reg_47": 4254139620,
                        "reg_48": 4062126228,
                        "reg_49": 1433480734,
                        "reg_4a": 1655705110,
                        "reg_4b": 1075872802,
                        "reg_4c": 2136219374,
                        "reg_4d": 6956581,
                        "reg_4e": 619884359,
                        "reg_4f": 959411759,
                        "reg_50": 358644639,
                        "reg_51": 829940470,
                        "reg_52": 890501466,
                        "reg_53": 1162676662,
                        "reg_54": 1789221160,
                        "reg_55": 2972042199,
                        "reg_56": 1614143585,
                        "reg_57": 3806532486,
                        "reg_58": 1687029508,
                        "reg_59": 960445208,
                        "reg_5a": 3722460204,
                        "reg_5b": 3676338611,
                        "reg_5c": 4050263017,
                        "reg_5d": 3271995857,
                        "reg_5e": 20045716,
                        "reg_5f": 2407355704,
                        "reg_60": 4286315317,
                        "reg_61": 1031736063,
                        "reg_62": 4294703727,
                        "reg_63": 4006870974,
                        "reg_64": 3992184242,
                        "reg_65": 1610085855,
                        "reg_66": 1025158127,
                        "reg_67": 804353384,
                        "reg_68": 4294967295,
                        "reg_69": 4294967295,
                        "reg_6a": 4294967295,
                        "reg_6b": 4294967295,
                        "reg_6c": 4294967295,
                        "reg_6d": 4294967295,
                        "reg_6e": 4294967295,
                        "reg_6f": 4294967295
                    },
                    {
                        "address": 17,
                        "reg_01": 135073037,
                        "reg_02": 269029440,
                        "reg_03": 1577219,
                        "reg_06": 71168,
                        "reg_07": 2399141888,
                        "reg_10": 0,
                        "reg_11": 0,
                        "reg_12": 0,
                        "reg_13": 0,
                        "reg_14": 0,
                        "reg_15": 0,
                        "reg_16": 0,
                        "reg_17": 0,
                        "reg_20": 7939,
                        "reg_21": 68,
                        "reg_22": 2,
                        "reg_23": 0,
                        "reg_40": 1964530054,
                        "reg_41": 2049316288,
                        "reg_42": 827740486,
                        "reg_43": 139438214,
                        "reg_44": 647267694,
                        "reg_45": 2018984259,
                        "reg_46": 1430713909,
                        "reg_47": 1145213021,
                        "reg_48": 1567828536,
                        "reg_49": 623907436,
                        "reg_4a": 1096075909,
                        "reg_4b": 1617101929,
                        "reg_4c": 641951029,
                        "reg_4d": 2839636751,
                        "reg_4e": 4151329377,
                        "reg_4f": 393512992,
                        "reg_50": 627962803,
                        "reg_51": 2997207616,
                        "reg_52": 627021755,
                        "reg_53": 2993081652,
                        "reg_54": 2253843386,
                        "reg_55": 2148231556,
                        "reg_56": 997607275,
                        "reg_57": 1495519812,
                        "reg_58": 610972455,
                        "reg_59": 1660169227,
                        "reg_5a": 789996343,
                        "reg_5b": 2655287364,
                        "reg_5c": 2984650984,
                        "reg_5d": 1954046009,
                        "reg_5e": 1920086684,
                        "reg_5f": 919044680,
                        "reg_60": 4026531839,
                        "reg_61": 4294443006,
                        "reg_62": 4294442943,
                        "reg_63": 4219469823,
                        "reg_64": 4092551143,
                        "reg_65": 4294967287,
                        "reg_66": 3217022719,
                        "reg_67": 3758022655,
                        "reg_68": 4294967295,
                        "reg_69": 4294967295,
                        "reg_6a": 4294967295,
                        "reg_6b": 4294967295,
                        "reg_6c": 4294967295,
                        "reg_6d": 4294967295,
                        "reg_6e": 4294967295,
                        "reg_6f": 4294967295
                    },
                    {
                        "address": 18,
                        "reg_01": 135073037,
                        "reg_02": 269029440,
                        "reg_03": 1576451,
                        "reg_06": 71424,
                        "reg_07": 2373976064,
                        "reg_10": 0,
                        "reg_11": 0,
                        "reg_12": 0,
                        "reg_13": 0,
                        "reg_14": 0,
                        "reg_15": 0,
                        "reg_16": 0,
                        "reg_17": 0,
                        "reg_20": 7938,
                        "reg_21": 68,
                        "reg_22": 2,
                        "reg_23": 0,
                        "reg_40": 1701288345,
                        "reg_41": 1798874497,
                        "reg_42": 3375790791,
                        "reg_43": 3912522292,
                        "reg_44": 2591457600,
                        "reg_45": 4032270744,
                        "reg_46": 1535471617,
                        "reg_47": 2543081585,
                        "reg_48": 1401637533,
                        "reg_49": 1930461813,
                        "reg_4a": 2549531003,
                        "reg_4b": 660001296,
                        "reg_4c": 3130554198,
                        "reg_4d": 1153528185,
                        "reg_4e": 1215657229,
                        "reg_4f": 2282242389,
                        "reg_50": 3431438519,
                        "reg_51": 2358400806,
                        "reg_52": 1470851207,
                        "reg_53": 2780173689,
                        "reg_54": 1573285511,
                        "reg_55": 2049558435,
                        "reg_56": 2826479237,
                        "reg_57": 1755960221,
                        "reg_58": 2859738393,
                        "reg_59": 1722254594,
                        "reg_5a": 3161790824,
                        "reg_5b": 914654613,
                        "reg_5c": 2792633700,
                        "reg_5d": 3222707125,
                        "reg_5e": 1789493605,
                        "reg_5f": 3263490248,
                        "reg_60": 2147221503,
                        "reg_61": 4227823615,
                        "reg_62": 4292345855,
                        "reg_63": 4294959103,
                        "reg_64": 4294967295,
                        "reg_65": 4294967295,
                        "reg_66": 4294967295,
                        "reg_67": 4160749567,
                        "reg_68": 4294967295,
                        "reg_69": 4294967295,
                        "reg_6a": 4294967295,
                        "reg_6b": 4294967295,
                        "reg_6c": 4294967295,
                        "reg_6d": 4294967295,
                        "reg_6e": 4294967295,
                        "reg_6f": 4294967295
                    },
                    {
                        "address": 19,
                        "reg_01": 135073037,
                        "reg_02": 269029440,
                        "reg_03": 1576963,
                        "reg_06": 79360,
                        "reg_07": 2518679552,
                        "reg_10": 0,
                        "reg_11": 0,
                        "reg_12": 0,
                        "reg_13": 0,
                        "reg_14": 0,
                        "reg_15": 0,
                        "reg_16": 0,
                        "reg_17": 0,
                        "reg_20": 7937,
                        "reg_21": 68,
                        "reg_22": 2,
                        "reg_23": 0,
                        "reg_40": 775113848,
                        "reg_41": 1433770884,
                        "reg_42": 4017319698,
                        "reg_43": 2588037702,
                        "reg_44": 1230504660,
                        "reg_45": 89611617,
                        "reg_46": 641269589,
                        "reg_47": 1493796108,
                        "reg_48": 612572557,
                        "reg_49": 571736089,
                        "reg_4a": 1758775113,
                        "reg_4b": 3473696343,
                        "reg_4c": 1613667699,
                        "reg_4d": 1732948261,
                        "reg_4e": 1188361717,
                        "reg_4f": 4091556656,
                        "reg_50": 3161150293,
                        "reg_51": 156579124,
                        "reg_52": 2401281306,
                        "reg_53": 285052722,
                        "reg_54": 3065610147,
                        "reg_55": 446235283,
                        "reg_56": 2558530978,
                        "reg_57": 110318307,
                        "reg_58": 862320294,
                        "reg_59": 1524929575,
                        "reg_5a": 926004907,
                        "reg_5b": 2727756167,
                        "reg_5c": 879965558,
                        "reg_5d": 91707392,
                        "reg_5e": 2231882899,
                        "reg_5f": 2151538738,
                        "reg_60": 4290510267,
                        "reg_61": 4158913533,
                        "reg_62": 802684922,
                        "reg_63": 1607858155,
                        "reg_64": 3686727471,
                        "reg_65": 4261281771,
                        "reg_66": 2147327991,
                        "reg_67": 4160225279,
                        "reg_68": 4294967295,
                        "reg_69": 4294967295,
                        "reg_6a": 4294967295,
                        "reg_6b": 4294967295,
                        "reg_6c": 4294967295,
                        "reg_6d": 4294967295,
                        "reg_6e": 4294967295,
                        "reg_6f": 4294967295
                    },
                    {
                        "address": 20,
                        "reg_01": 135073037,
                        "reg_02": 269029440,
                        "reg_03": 1576707,
                        "reg_06": 73232,
                        "reg_07": 2535456768,
                        "reg_10": 0,
                        "reg_11": 0,
                        "reg_12": 0,
                        "reg_13": 0,
                        "reg_14": 0,
                        "reg_15": 0,
                        "reg_16": 0,
                        "reg_17": 0,
                        "reg_20": 3840,
                        "reg_21": 68,
                        "reg_22": 2,
                        "reg_23": 0,
                        "reg_40": 4053095273,
                        "reg_41": 1097481005,
                        "reg_42": 625793058,
                        "reg_43": 1986515586,
                        "reg_44": 2448906054,
                        "reg_45": 1022066284,
                        "reg_46": 1957454464,
                        "reg_47": 651338422,
                        "reg_48": 24514713,
                        "reg_49": 1737043736,
                        "reg_4a": 943881297,
                        "reg_4b": 587473521,
                        "reg_4c": 608438887,
                        "reg_4d": 1171514688,
                        "reg_4e": 1781075381,
                        "reg_4f": 3892850755,
                        "reg_50": 523197442,
                        "reg_51": 1424441554,
                        "reg_52": 4237568802,
                        "reg_53": 2116478016,
                        "reg_54": 305554165,
                        "reg_55": 461978475,
                        "reg_56": 4026893821,
                        "reg_57": 3010085129,
                        "reg_58": 949345676,
                        "reg_59": 1407854101,
                        "reg_5a": 1123328802,
                        "reg_5b": 284617668,
                        "reg_5c": 3447652368,
                        "reg_5d": 1017455895,
                        "reg_5e": 1292997476,
                        "reg_5f": 2942604771,
                        "reg_60": 4158913119,
                        "reg_61": 3589257951,
                        "reg_62": 4294704127,
                        "reg_63": 803854331,
                        "reg_64": 3074416043,
                        "reg_65": 2138880749,
                        "reg_66": 3521110006,
                        "reg_67": 3183468335,
                        "reg_68": 4294967295,
                        "reg_69": 4294967295,
                        "reg_6a": 4294967295,
                        "reg_6b": 4294967295,
                        "reg_6c": 4294967295,
                        "reg_6d": 4294967295,
                        "reg_6e": 4294967295,
                        "reg_6f": 4294967295
                    },
                    {
                        "address": 21,
                        "reg_01": 135073037,
                        "reg_02": 269029440,
                        "reg_03": 1576963,
                        "reg_06": 73280,
                        "reg_07": 2520776704,
                        "reg_10": 0,
                        "reg_11": 0,
                        "reg_12": 0,
                        "reg_13": 0,
                        "reg_14": 0,
                        "reg_15": 0,
                        "reg_16": 0,
                        "reg_17": 0,
                        "reg_20": 7940,
                        "reg_21": 68,
                        "reg_22": 2,
                        "reg_23": 0,
                        "reg_40": 678830455,
                        "reg_41": 1750689324,
                        "reg_42": 1749382623,
                        "reg_43": 1465028568,
                        "reg_44": 1739879045,
                        "reg_45": 1379051557,
                        "reg_46": 698505969,
                        "reg_47": 4168684926,
                        "reg_48": 895232088,
                        "reg_49": 3724678465,
                        "reg_4a": 3059033171,
                        "reg_4b": 23202582,
                        "reg_4c": 555372883,
                        "reg_4d": 3847394710,
                        "reg_4e": 1975086682,
                        "reg_4f": 3362929179,
                        "reg_50": 1583398487,
                        "reg_51": 66159444,
                        "reg_52": 1780648258,
                        "reg_53": 1683313762,
                        "reg_54": 4197646456,
                        "reg_55": 2239316286,
                        "reg_56": 2506465800,
                        "reg_57": 1221038916,
                        "reg_58": 931363952,
                        "reg_59": 3219679078,
                        "reg_5a": 2605114973,
                        "reg_5b": 797587061,
                        "reg_5c": 2522119045,
                        "reg_5d": 2188515660,
                        "reg_5e": 2076722528,
                        "reg_5f": 170416006,
                        "reg_60": 4227661567,
                        "reg_61": 2130575359,
                        "reg_62": 4294918127,
                        "reg_63": 2077982719,
                        "reg_64": 4294959035,
                        "reg_65": 4294967167,
                        "reg_66": 3221225471,
                        "reg_67": 4294967295,
                        "reg_68": 4294967295,
                        "reg_69": 4294967295,
                        "reg_6a": 4294967295,
                        "reg_6b": 4294967295,
                        "reg_6c": 4294967295,
                        "reg_6d": 4294967295,
                        "reg_6e": 4294967295,
                        "reg_6f": 4294967295
                    },
                    {
                        "address": 22,
                        "reg_01": 135073037,
                        "reg_02": 269029440,
                        "reg_03": 1577475,
                        "reg_06": 72960,
                        "reg_07": 2269118464,
                        "reg_10": 0,
                        "reg_11": 0,
                        "reg_12": 0,
                        "reg_13": 0,
                        "reg_14": 0,
                        "reg_15": 0,
                        "reg_16": 0,
                        "reg_17": 0,
                        "reg_20": 7939,
                        "reg_21": 68,
                        "reg_22": 2,
                        "reg_23": 0,
                        "reg_40": 4288688426,
                        "reg_41": 2058467726,
                        "reg_42": 1298621922,
                        "reg_43": 3617607664,
                        "reg_44": 1416097209,
                        "reg_45": 917262268,
                        "reg_46": 3076448099,
                        "reg_47": 116658420,
                        "reg_48": 4124086919,
                        "reg_49": 1574834130,
                        "reg_4a": 3105905518,
                        "reg_4b": 1715622019,
                        "reg_4c": 555642381,
                        "reg_4d": 2717107845,
                        "reg_4e": 291881012,
                        "reg_4f": 1090591197,
                        "reg_50": 1744191944,
                        "reg_51": 957166121,
                        "reg_52": 1139221842,
                        "reg_53": 1156784397,
                        "reg_54": 2495810551,
                        "reg_55": 2250609537,
                        "reg_56": 1696269663,
                        "reg_57": 1970935944,
                        "reg_58": 2525329221,
                        "reg_59": 6118518,
                        "reg_5a": 1948029815,
                        "reg_5b": 3792265926,
                        "reg_5c": 2735710569,
                        "reg_5d": 4198839670,
                        "reg_5e": 2577548358,
                        "reg_5f": 3243018518,
                        "reg_60": 1505604126,
                        "reg_61": 3714312434,
                        "reg_62": 4294871383,
                        "reg_63": 4244100586,
                        "reg_64": 3741315037,
                        "reg_65": 4294901757,
                        "reg_66": 2146430975,
                        "reg_67": 4294934511,
                        "reg_68": 4294967295,
                        "reg_69": 4294967295,
                        "reg_6a": 4294967295,
                        "reg_6b": 4294967295,
                        "reg_6c": 4294967295,
                        "reg_6d": 4294967295,
                        "reg_6e": 4294967295,
                        "reg_6f": 4294967295
                    },
                    {
                        "address": 23,
                        "reg_01": 135073037,
                        "reg_02": 269029440,
                        "reg_03": 1576963,
                        "reg_06": 71296,
                        "reg_07": 2367684608,
                        "reg_10": 0,
                        "reg_11": 0,
                        "reg_12": 0,
                        "reg_13": 0,
                        "reg_14": 0,
                        "reg_15": 0,
                        "reg_16": 0,
                        "reg_17": 0,
                        "reg_20": 7938,
                        "reg_21": 68,
                        "reg_22": 2,
                        "reg_23": 0,
                        "reg_40": 681484297,
                        "reg_41": 1576159654,
                        "reg_42": 1597331798,
                        "reg_43": 371164837,
                        "reg_44": 2251206456,
                        "reg_45": 1670541888,
                        "reg_46": 1583973208,
                        "reg_47": 1736857777,
                        "reg_48": 4087539639,
                        "reg_49": 1044870788,
                        "reg_4a": 1783949209,
                        "reg_4b": 3603731796,
                        "reg_4c": 652592933,
                        "reg_4d": 226690657,
                        "reg_4e": 2515807026,
                        "reg_4f": 3566220099,
                        "reg_50": 473712761,
                        "reg_51": 3056507486,
                        "reg_52": 2254390080,
                        "reg_53": 2691810918,
                        "reg_54": 3073737936,
                        "reg_55": 1329800226,
                        "reg_56": 3574936333,
                        "reg_57": 1094074245,
                        "reg_58": 494081925,
                        "reg_59": 2873008375,
                        "reg_5a": 1931539108,
                        "reg_5b": 825004826,
                        "reg_5c": 4255651288,
                        "reg_5d": 3581248284,
                        "reg_5e": 1370579218,
                        "reg_5f": 1492512602,
                        "reg_60": 4026507247,
                        "reg_61": 4294967275,
                        "reg_62": 2143272823,
                        "reg_63": 2145107935,
                        "reg_64": 4159695535,
                        "reg_65": 4219453309,
                        "reg_66": 4026002877,
                        "reg_67": 3556736893,
                        "reg_68": 4294967295,
                        "reg_69": 4294967295,
                        "reg_6a": 4294967295,
                        "reg_6b": 4294967295,
                        "reg_6c": 4294967295,
                        "reg_6d": 4294967295,
                        "reg_6e": 4294967295,
                        "reg_6f": 4294967295
                    },
                    {
                        "address": 24,
                        "reg_01": 135073037,
                        "reg_02": 269029440,
                        "reg_03": 1577219,
                        "reg_06": 72208,
                        "reg_07": 2533883904,
                        "reg_10": 0,
                        "reg_11": 0,
                        "reg_12": 0,
                        "reg_13": 0,
                        "reg_14": 0,
                        "reg_15": 0,
                        "reg_16": 0,
                        "reg_17": 0,
                        "reg_20": 7937,
                        "reg_21": 68,
                        "reg_22": 2,
                        "reg_23": 0,
                        "reg_40": 2619832610,
                        "reg_41": 3214226017,
                        "reg_42": 1763330018,
                        "reg_43": 3817433121,
                        "reg_44": 1430791310,
                        "reg_45": 3828836166,
                        "reg_46": 1952218097,
                        "reg_47": 2322890226,
                        "reg_48": 1195853032,
                        "reg_49": 849638697,
                        "reg_4a": 960512867,
                        "reg_4b": 592655398,
                        "reg_4c": 2573703162,
                        "reg_4d": 3295721270,
                        "reg_4e": 2488460850,
                        "reg_4f": 4031300037,
                        "reg_50": 355812931,
                        "reg_51": 756607843,
                        "reg_52": 1492430186,
                        "reg_53": 1329538424,
                        "reg_54": 2187510801,
                        "reg_55": 2202293483,
                        "reg_56": 2588047800,
                        "reg_57": 2536271643,
                        "reg_58": 1081649111,
                        "reg_59": 1796310148,
                        "reg_5a": 4034286679,
                        "reg_5b": 1127648082,
                        "reg_5c": 911620176,
                        "reg_5d": 947545973,
                        "reg_5e": 4131858227,
                        "reg_5f": 2256925858,
                        "reg_60": 4294819839,
                        "reg_61": 4194140158,
                        "reg_62": 4294967293,
                        "reg_63": 2146926589,
                        "reg_64": 2950674431,
                        "reg_65": 3959422455,
                        "reg_66": 4286578685,
                        "reg_67": 4152360959,
                        "reg_68": 4294967295,
                        "reg_69": 4294967295,
                        "reg_6a": 4294967295,
                        "reg_6b": 4294967295,
                        "reg_6c": 4294967295,
                        "reg_6d": 4294967295,
                        "reg_6e": 4294967295,
                        "reg_6f": 4294967295
                    },
                    {
                        "address": 25,
                        "reg_01": 135073037,
                        "reg_02": 269029440,
                        "reg_03": 1577219,
                        "reg_06": 76416,
                        "reg_07": 2503999488,
                        "reg_10": 0,
                        "reg_11": 0,
                        "reg_12": 0,
                        "reg_13": 0,
                        "reg_14": 0,
                        "reg_15": 0,
                        "reg_16": 0,
                        "reg_17": 0,
                        "reg_20": 3840,
                        "reg_21": 68,
                        "reg_22": 2,
                        "reg_23": 0,
                        "reg_40": 2448294168,
                        "reg_41": 3342914754,
                        "reg_42": 538050278,
                        "reg_43": 1581946594,
                        "reg_44": 1419896065,
                        "reg_45": 3898872935,
                        "reg_46": 3574961490,
                        "reg_47": 1680200738,
                        "reg_48": 1068950469,
                        "reg_49": 1451412443,
                        "reg_4a": 303175784,
                        "reg_4b": 4077197435,
                        "reg_4c": 3782754383,
                        "reg_4d": 643961604,
                        "reg_4e": 2596286336,
                        "reg_4f": 1303644287,
                        "reg_50": 1850131319,
                        "reg_51": 3930317934,
                        "reg_52": 3572495753,
                        "reg_53": 1224151519,
                        "reg_54": 774124112,
                        "reg_55": 806178926,
                        "reg_56": 60238263,
                        "reg_57": 3791725139,
                        "reg_58": 354166222,
                        "reg_59": 1857164386,
                        "reg_5a": 1308127374,
                        "reg_5b": 1700840199,
                        "reg_5c": 1065701462,
                        "reg_5d": 2490037785,
                        "reg_5e": 3571496755,
                        "reg_5f": 1578798279,
                        "reg_60": 2918282703,
                        "reg_61": 4152328183,
                        "reg_62": 2130702773,
                        "reg_63": 2665217918,
                        "reg_64": 3695605431,
                        "reg_65": 2147217087,
                        "reg_66": 4154343404,
                        "reg_67": 2874668991,
                        "reg_68": 4294967295,
                        "reg_69": 4294967295,
                        "reg_6a": 4294967295,
                        "reg_6b": 4294967295,
                        "reg_6c": 4294967295,
                        "reg_6d": 4294967295,
                        "reg_6e": 4294967295,
                        "reg_6f": 4294967295
                    }
                ],
                "hcc": {
                    "address": 4,
                    "regs": [
                        523973,
                        3768681216,
                        2112,
                        1047552,
                        1072694271,
                        1047552,
                        1072694271,
                        1047552,
                        0,
                        969831324,
                        197428,
                        17105922,
                        2281736192,
                        7689557,
                        4293986303,
                        4294967295,
                        0,
                        0
                    ]
                },
                "pos_to_addr": [
                    16,
                    17,
                    18,
                    19,
                    20,
                    21,
                    22,
                    23,
                    24,
                    25
                ],
                "pos_to_id": [
                    0,
                    1,
                    2,
                    3,
                    4,
                    5,
                    6,
                    7,
                    8,
                    9
                ]
            }
        ]
    },
    "scan_info": {
        "BC ID reset frequency": 0,
        "COM_DELAY": 200,
        "Config frequency": 0,
        "L1A per loop": 16,
        "PULSE_DELAY": 129,
        "Soft reset frequency": 1000,
        "TRIG_DELAY": 142,
        "abc_busy_limit": 5,
        "abort_on_l0id_mismatch": 0,
        "burst max timeouts": 6,
        "burst maxtrigs": 1000000,
        "burst ntrigs": 192,
        "burst target": 10,
        "burst trtype": 39,
        "burst type": 100,
        "check_l0id_offset": 0,
        "continue_event_count_between_bursts": 0,
        "debug level": 0,
        "do action DCS": 1,
        "do autostop": 1,
        "do calibration loop": 0,
        "do fill evtree": 0,
        "do fits": 1,
        "do mask by cal": 0,
        "do mask test": 0,
        "do pre burst": 0,
        "do threaded burst": 1,
        "do var ntrigs": 0,
        "do_check_l0id": 0,
        "external_trigger_source": 255,
        "fill_delta_t": 1,
        "fill_timebin_hit_data": 0,
        "fill_tree_counter": 0,
        "one_bank": 0,
        "pack_hitmap_bits": 0,
        "paf": 3,
        "process_in_callback": 0,
        "pull_event_by_l0": 0,
        "rate_limit_delay": 0,
        "read_tdc_data": 0,
        "reset_on_l0id_mismatch": 0,
        "save_event_hit_data": 0,
        "save_raw_event_data": 0,
        "save_trigger_data": 0,
        "send signals": 0,
        "send_raw_event_data": 0,
        "send_signal_event_offset": 0,
        "signal_filler_events": 0,
        "throw away triggers": 0,
        "trigger_single_packet": 0,
        "trlim": 0,
        "ttc_busy_limit": 5,
        "wait_external_trigger_timeout": 5
    },
    "scan_points": {
        "scan_type": 1,
        "scan_type_string": "THRESHOLD (DAC)",
        "scan_values": [
            0.0,
            1.0,
            2.0,
            3.0,
            4.0,
            5.0,
            6.0,
            7.0,
            8.0,
            9.0,
            10.0,
            11.0,
            12.0,
            13.0,
            14.0,
            15.0,
            16.0,
            17.0,
            18.0,
            19.0,
            20.0,
            21.0,
            22.0,
            23.0,
            24.0,
            25.0,
            26.0,
            27.0,
            28.0,
            29.0,
            30.0,
            31.0,
            32.0,
            33.0,
            34.0,
            35.0,
            36.0,
            37.0,
            38.0,
            39.0,
            40.0,
            41.0,
            42.0,
            43.0,
            44.0,
            45.0,
            46.0,
            47.0,
            48.0,
            49.0,
            50.0,
            51.0,
            52.0,
            53.0,
            54.0,
            55.0,
            56.0,
            57.0,
            58.0,
            59.0,
            60.0,
            61.0,
            62.0,
            63.0,
            64.0,
            65.0,
            66.0,
            67.0,
            68.0,
            69.0,
            70.0,
            71.0,
            72.0,
            73.0,
            74.0,
            75.0,
            76.0,
            77.0,
            78.0,
            79.0,
            80.0,
            81.0,
            82.0,
            83.0,
            84.0,
            85.0,
            86.0,
            87.0,
            88.0,
            89.0,
            90.0,
            91.0,
            92.0,
            93.0,
            94.0,
            95.0,
            96.0,
            97.0,
            98.0,
            99.0,
            100.0,
            101.0,
            102.0,
            103.0,
            104.0,
            105.0
        ]
    },
    "schema_version": 1,
    "system_info": {
        "GIT URL": "https://gitlab.cern.ch/atlas-itk-strips-daq/itsdaq-sw.git@fc502eefee448b9932f7f34979a435c3e75c0fdc",
        "GIT commit date": "2018-04-03 09:18:07 +0000 (Tue, 03 Apr 2018)",
        "GIT info extracted": "2018-04-10 19:02:33 +0000 (Tue, 10 Apr 2018)",
        "GIT modified": "locally modified",
        "GIT revision": "3730",
        "dedication": "ABCN-25/ABC130 with or without BCC/HCC, built for HSIO",
        "firmware": "b199"
    }
}
