{
    "configuration": {
        "module": [
            {
                "chips": [
                    {
                        "address": 16,
                        "reg_01": 235736333,
                        "reg_02": 269029456,
                        "reg_03": 7487235,
                        "reg_06": 72834,
                        "reg_07": 2390753280,
                        "reg_10": 0,
                        "reg_11": 0,
                        "reg_12": 0,
                        "reg_13": 0,
                        "reg_14": 0,
                        "reg_15": 0,
                        "reg_16": 0,
                        "reg_17": 0,
                        "reg_20": 7940,
                        "reg_21": 68,
                        "reg_22": 2,
                        "reg_23": 9,
                        "reg_40": 0,
                        "reg_41": 0,
                        "reg_42": 0,
                        "reg_43": 0,
                        "reg_44": 0,
                        "reg_45": 0,
                        "reg_46": 0,
                        "reg_47": 0,
                        "reg_48": 0,
                        "reg_49": 0,
                        "reg_4a": 0,
                        "reg_4b": 0,
                        "reg_4c": 0,
                        "reg_4d": 0,
                        "reg_4e": 0,
                        "reg_4f": 0,
                        "reg_50": 0,
                        "reg_51": 0,
                        "reg_52": 0,
                        "reg_53": 0,
                        "reg_54": 0,
                        "reg_55": 0,
                        "reg_56": 0,
                        "reg_57": 0,
                        "reg_58": 0,
                        "reg_59": 0,
                        "reg_5a": 0,
                        "reg_5b": 0,
                        "reg_5c": 0,
                        "reg_5d": 0,
                        "reg_5e": 0,
                        "reg_5f": 0,
                        "reg_60": 4294967295,
                        "reg_61": 4294967295,
                        "reg_62": 4294967295,
                        "reg_63": 4294967295,
                        "reg_64": 4294967295,
                        "reg_65": 4294967295,
                        "reg_66": 4294967295,
                        "reg_67": 4294967295,
                        "reg_68": 4294967295,
                        "reg_69": 4294967295,
                        "reg_6a": 4294967295,
                        "reg_6b": 4294967295,
                        "reg_6c": 4294967295,
                        "reg_6d": 4294967295,
                        "reg_6e": 4294967295,
                        "reg_6f": 4294967295
                    },
                    {
                        "address": 17,
                        "reg_01": 235736333,
                        "reg_02": 269029464,
                        "reg_03": 7487235,
                        "reg_06": 71168,
                        "reg_07": 2399141888,
                        "reg_10": 0,
                        "reg_11": 0,
                        "reg_12": 0,
                        "reg_13": 0,
                        "reg_14": 0,
                        "reg_15": 0,
                        "reg_16": 0,
                        "reg_17": 0,
                        "reg_20": 7939,
                        "reg_21": 68,
                        "reg_22": 2,
                        "reg_23": 9,
                        "reg_40": 0,
                        "reg_41": 0,
                        "reg_42": 0,
                        "reg_43": 0,
                        "reg_44": 0,
                        "reg_45": 0,
                        "reg_46": 0,
                        "reg_47": 0,
                        "reg_48": 0,
                        "reg_49": 0,
                        "reg_4a": 0,
                        "reg_4b": 0,
                        "reg_4c": 0,
                        "reg_4d": 0,
                        "reg_4e": 0,
                        "reg_4f": 0,
                        "reg_50": 0,
                        "reg_51": 0,
                        "reg_52": 0,
                        "reg_53": 0,
                        "reg_54": 0,
                        "reg_55": 0,
                        "reg_56": 0,
                        "reg_57": 0,
                        "reg_58": 0,
                        "reg_59": 0,
                        "reg_5a": 0,
                        "reg_5b": 0,
                        "reg_5c": 0,
                        "reg_5d": 0,
                        "reg_5e": 0,
                        "reg_5f": 0,
                        "reg_60": 4294967295,
                        "reg_61": 4294967295,
                        "reg_62": 4294967295,
                        "reg_63": 4294967295,
                        "reg_64": 4294967295,
                        "reg_65": 4294967295,
                        "reg_66": 4294967295,
                        "reg_67": 4294967295,
                        "reg_68": 4294967295,
                        "reg_69": 4294967295,
                        "reg_6a": 4294967295,
                        "reg_6b": 4294967295,
                        "reg_6c": 4294967295,
                        "reg_6d": 4294967295,
                        "reg_6e": 4294967295,
                        "reg_6f": 4294967295
                    },
                    {
                        "address": 18,
                        "reg_01": 235736333,
                        "reg_02": 269029464,
                        "reg_03": 7487235,
                        "reg_06": 71424,
                        "reg_07": 2373976064,
                        "reg_10": 0,
                        "reg_11": 0,
                        "reg_12": 0,
                        "reg_13": 0,
                        "reg_14": 0,
                        "reg_15": 0,
                        "reg_16": 0,
                        "reg_17": 0,
                        "reg_20": 7938,
                        "reg_21": 68,
                        "reg_22": 2,
                        "reg_23": 9,
                        "reg_40": 0,
                        "reg_41": 0,
                        "reg_42": 0,
                        "reg_43": 0,
                        "reg_44": 0,
                        "reg_45": 0,
                        "reg_46": 0,
                        "reg_47": 0,
                        "reg_48": 0,
                        "reg_49": 0,
                        "reg_4a": 0,
                        "reg_4b": 0,
                        "reg_4c": 0,
                        "reg_4d": 0,
                        "reg_4e": 0,
                        "reg_4f": 0,
                        "reg_50": 0,
                        "reg_51": 0,
                        "reg_52": 0,
                        "reg_53": 0,
                        "reg_54": 0,
                        "reg_55": 0,
                        "reg_56": 0,
                        "reg_57": 0,
                        "reg_58": 0,
                        "reg_59": 0,
                        "reg_5a": 0,
                        "reg_5b": 0,
                        "reg_5c": 0,
                        "reg_5d": 0,
                        "reg_5e": 0,
                        "reg_5f": 0,
                        "reg_60": 4294967295,
                        "reg_61": 4294967295,
                        "reg_62": 4294967295,
                        "reg_63": 4294967295,
                        "reg_64": 4294967295,
                        "reg_65": 4294967295,
                        "reg_66": 4294967295,
                        "reg_67": 4294967295,
                        "reg_68": 4294967295,
                        "reg_69": 4294967295,
                        "reg_6a": 4294967295,
                        "reg_6b": 4294967295,
                        "reg_6c": 4294967295,
                        "reg_6d": 4294967295,
                        "reg_6e": 4294967295,
                        "reg_6f": 4294967295
                    },
                    {
                        "address": 19,
                        "reg_01": 235736333,
                        "reg_02": 269029472,
                        "reg_03": 7487235,
                        "reg_06": 79360,
                        "reg_07": 2518679552,
                        "reg_10": 0,
                        "reg_11": 0,
                        "reg_12": 0,
                        "reg_13": 0,
                        "reg_14": 0,
                        "reg_15": 0,
                        "reg_16": 0,
                        "reg_17": 0,
                        "reg_20": 7937,
                        "reg_21": 68,
                        "reg_22": 2,
                        "reg_23": 9,
                        "reg_40": 0,
                        "reg_41": 0,
                        "reg_42": 0,
                        "reg_43": 0,
                        "reg_44": 0,
                        "reg_45": 0,
                        "reg_46": 0,
                        "reg_47": 0,
                        "reg_48": 0,
                        "reg_49": 0,
                        "reg_4a": 0,
                        "reg_4b": 0,
                        "reg_4c": 0,
                        "reg_4d": 0,
                        "reg_4e": 0,
                        "reg_4f": 0,
                        "reg_50": 0,
                        "reg_51": 0,
                        "reg_52": 0,
                        "reg_53": 0,
                        "reg_54": 0,
                        "reg_55": 0,
                        "reg_56": 0,
                        "reg_57": 0,
                        "reg_58": 0,
                        "reg_59": 0,
                        "reg_5a": 0,
                        "reg_5b": 0,
                        "reg_5c": 0,
                        "reg_5d": 0,
                        "reg_5e": 0,
                        "reg_5f": 0,
                        "reg_60": 4294967295,
                        "reg_61": 4294967295,
                        "reg_62": 4294967295,
                        "reg_63": 4294967295,
                        "reg_64": 4294967295,
                        "reg_65": 4294967295,
                        "reg_66": 4294967295,
                        "reg_67": 4294967295,
                        "reg_68": 4294967295,
                        "reg_69": 4294967295,
                        "reg_6a": 4294967295,
                        "reg_6b": 4294967295,
                        "reg_6c": 4294967295,
                        "reg_6d": 4294967295,
                        "reg_6e": 4294967295,
                        "reg_6f": 4294967295
                    },
                    {
                        "address": 20,
                        "reg_01": 235736333,
                        "reg_02": 269029463,
                        "reg_03": 7487235,
                        "reg_06": 73232,
                        "reg_07": 2535456768,
                        "reg_10": 0,
                        "reg_11": 0,
                        "reg_12": 0,
                        "reg_13": 0,
                        "reg_14": 0,
                        "reg_15": 0,
                        "reg_16": 0,
                        "reg_17": 0,
                        "reg_20": 3840,
                        "reg_21": 68,
                        "reg_22": 2,
                        "reg_23": 9,
                        "reg_40": 0,
                        "reg_41": 0,
                        "reg_42": 0,
                        "reg_43": 0,
                        "reg_44": 0,
                        "reg_45": 0,
                        "reg_46": 0,
                        "reg_47": 0,
                        "reg_48": 0,
                        "reg_49": 0,
                        "reg_4a": 0,
                        "reg_4b": 0,
                        "reg_4c": 0,
                        "reg_4d": 0,
                        "reg_4e": 0,
                        "reg_4f": 0,
                        "reg_50": 0,
                        "reg_51": 0,
                        "reg_52": 0,
                        "reg_53": 0,
                        "reg_54": 0,
                        "reg_55": 0,
                        "reg_56": 0,
                        "reg_57": 0,
                        "reg_58": 0,
                        "reg_59": 0,
                        "reg_5a": 0,
                        "reg_5b": 0,
                        "reg_5c": 0,
                        "reg_5d": 0,
                        "reg_5e": 0,
                        "reg_5f": 0,
                        "reg_60": 4294967295,
                        "reg_61": 4294967295,
                        "reg_62": 4294967295,
                        "reg_63": 4294967295,
                        "reg_64": 4294967295,
                        "reg_65": 4294967295,
                        "reg_66": 4294967295,
                        "reg_67": 4294967295,
                        "reg_68": 4294967295,
                        "reg_69": 4294967295,
                        "reg_6a": 4294967295,
                        "reg_6b": 4294967295,
                        "reg_6c": 4294967295,
                        "reg_6d": 4294967295,
                        "reg_6e": 4294967295,
                        "reg_6f": 4294967295
                    },
                    {
                        "address": 21,
                        "reg_01": 235736333,
                        "reg_02": 269029459,
                        "reg_03": 7487235,
                        "reg_06": 73280,
                        "reg_07": 2520776704,
                        "reg_10": 0,
                        "reg_11": 0,
                        "reg_12": 0,
                        "reg_13": 0,
                        "reg_14": 0,
                        "reg_15": 0,
                        "reg_16": 0,
                        "reg_17": 0,
                        "reg_20": 7940,
                        "reg_21": 68,
                        "reg_22": 2,
                        "reg_23": 9,
                        "reg_40": 0,
                        "reg_41": 0,
                        "reg_42": 0,
                        "reg_43": 0,
                        "reg_44": 0,
                        "reg_45": 0,
                        "reg_46": 0,
                        "reg_47": 0,
                        "reg_48": 0,
                        "reg_49": 0,
                        "reg_4a": 0,
                        "reg_4b": 0,
                        "reg_4c": 0,
                        "reg_4d": 0,
                        "reg_4e": 0,
                        "reg_4f": 0,
                        "reg_50": 0,
                        "reg_51": 0,
                        "reg_52": 0,
                        "reg_53": 0,
                        "reg_54": 0,
                        "reg_55": 0,
                        "reg_56": 0,
                        "reg_57": 0,
                        "reg_58": 0,
                        "reg_59": 0,
                        "reg_5a": 0,
                        "reg_5b": 0,
                        "reg_5c": 0,
                        "reg_5d": 0,
                        "reg_5e": 0,
                        "reg_5f": 0,
                        "reg_60": 4294967295,
                        "reg_61": 4294967295,
                        "reg_62": 4294967295,
                        "reg_63": 4294967295,
                        "reg_64": 4294967295,
                        "reg_65": 4294967295,
                        "reg_66": 4294967295,
                        "reg_67": 4294967295,
                        "reg_68": 4294967295,
                        "reg_69": 4294967295,
                        "reg_6a": 4294967295,
                        "reg_6b": 4294967295,
                        "reg_6c": 4294967295,
                        "reg_6d": 4294967295,
                        "reg_6e": 4294967295,
                        "reg_6f": 4294967295
                    },
                    {
                        "address": 22,
                        "reg_01": 235736333,
                        "reg_02": 269029463,
                        "reg_03": 7487235,
                        "reg_06": 72960,
                        "reg_07": 2269118464,
                        "reg_10": 0,
                        "reg_11": 0,
                        "reg_12": 0,
                        "reg_13": 0,
                        "reg_14": 0,
                        "reg_15": 0,
                        "reg_16": 0,
                        "reg_17": 0,
                        "reg_20": 7939,
                        "reg_21": 68,
                        "reg_22": 2,
                        "reg_23": 9,
                        "reg_40": 0,
                        "reg_41": 0,
                        "reg_42": 0,
                        "reg_43": 0,
                        "reg_44": 0,
                        "reg_45": 0,
                        "reg_46": 0,
                        "reg_47": 0,
                        "reg_48": 0,
                        "reg_49": 0,
                        "reg_4a": 0,
                        "reg_4b": 0,
                        "reg_4c": 0,
                        "reg_4d": 0,
                        "reg_4e": 0,
                        "reg_4f": 0,
                        "reg_50": 0,
                        "reg_51": 0,
                        "reg_52": 0,
                        "reg_53": 0,
                        "reg_54": 0,
                        "reg_55": 0,
                        "reg_56": 0,
                        "reg_57": 0,
                        "reg_58": 0,
                        "reg_59": 0,
                        "reg_5a": 0,
                        "reg_5b": 0,
                        "reg_5c": 0,
                        "reg_5d": 0,
                        "reg_5e": 0,
                        "reg_5f": 0,
                        "reg_60": 4294967295,
                        "reg_61": 4294967295,
                        "reg_62": 4294967295,
                        "reg_63": 4294967295,
                        "reg_64": 4294967295,
                        "reg_65": 4294967295,
                        "reg_66": 4294967295,
                        "reg_67": 4294967295,
                        "reg_68": 4294967295,
                        "reg_69": 4294967295,
                        "reg_6a": 4294967295,
                        "reg_6b": 4294967295,
                        "reg_6c": 4294967295,
                        "reg_6d": 4294967295,
                        "reg_6e": 4294967295,
                        "reg_6f": 4294967295
                    },
                    {
                        "address": 23,
                        "reg_01": 235736333,
                        "reg_02": 269029459,
                        "reg_03": 7487235,
                        "reg_06": 71296,
                        "reg_07": 2367684608,
                        "reg_10": 0,
                        "reg_11": 0,
                        "reg_12": 0,
                        "reg_13": 0,
                        "reg_14": 0,
                        "reg_15": 0,
                        "reg_16": 0,
                        "reg_17": 0,
                        "reg_20": 7938,
                        "reg_21": 68,
                        "reg_22": 2,
                        "reg_23": 9,
                        "reg_40": 0,
                        "reg_41": 0,
                        "reg_42": 0,
                        "reg_43": 0,
                        "reg_44": 0,
                        "reg_45": 0,
                        "reg_46": 0,
                        "reg_47": 0,
                        "reg_48": 0,
                        "reg_49": 0,
                        "reg_4a": 0,
                        "reg_4b": 0,
                        "reg_4c": 0,
                        "reg_4d": 0,
                        "reg_4e": 0,
                        "reg_4f": 0,
                        "reg_50": 0,
                        "reg_51": 0,
                        "reg_52": 0,
                        "reg_53": 0,
                        "reg_54": 0,
                        "reg_55": 0,
                        "reg_56": 0,
                        "reg_57": 0,
                        "reg_58": 0,
                        "reg_59": 0,
                        "reg_5a": 0,
                        "reg_5b": 0,
                        "reg_5c": 0,
                        "reg_5d": 0,
                        "reg_5e": 0,
                        "reg_5f": 0,
                        "reg_60": 4294967295,
                        "reg_61": 4294967295,
                        "reg_62": 4294967295,
                        "reg_63": 4294967295,
                        "reg_64": 4294967295,
                        "reg_65": 4294967295,
                        "reg_66": 4294967295,
                        "reg_67": 4294967295,
                        "reg_68": 4294967295,
                        "reg_69": 4294967295,
                        "reg_6a": 4294967295,
                        "reg_6b": 4294967295,
                        "reg_6c": 4294967295,
                        "reg_6d": 4294967295,
                        "reg_6e": 4294967295,
                        "reg_6f": 4294967295
                    },
                    {
                        "address": 24,
                        "reg_01": 235736333,
                        "reg_02": 269029468,
                        "reg_03": 7487235,
                        "reg_06": 72208,
                        "reg_07": 2533883904,
                        "reg_10": 0,
                        "reg_11": 0,
                        "reg_12": 0,
                        "reg_13": 0,
                        "reg_14": 0,
                        "reg_15": 0,
                        "reg_16": 0,
                        "reg_17": 0,
                        "reg_20": 7937,
                        "reg_21": 68,
                        "reg_22": 2,
                        "reg_23": 9,
                        "reg_40": 0,
                        "reg_41": 0,
                        "reg_42": 0,
                        "reg_43": 0,
                        "reg_44": 0,
                        "reg_45": 0,
                        "reg_46": 0,
                        "reg_47": 0,
                        "reg_48": 0,
                        "reg_49": 0,
                        "reg_4a": 0,
                        "reg_4b": 0,
                        "reg_4c": 0,
                        "reg_4d": 0,
                        "reg_4e": 0,
                        "reg_4f": 0,
                        "reg_50": 0,
                        "reg_51": 0,
                        "reg_52": 0,
                        "reg_53": 0,
                        "reg_54": 0,
                        "reg_55": 0,
                        "reg_56": 0,
                        "reg_57": 0,
                        "reg_58": 0,
                        "reg_59": 0,
                        "reg_5a": 0,
                        "reg_5b": 0,
                        "reg_5c": 0,
                        "reg_5d": 0,
                        "reg_5e": 0,
                        "reg_5f": 0,
                        "reg_60": 4294967295,
                        "reg_61": 4294967295,
                        "reg_62": 4294967295,
                        "reg_63": 4294967295,
                        "reg_64": 4294967295,
                        "reg_65": 4294967295,
                        "reg_66": 4294967295,
                        "reg_67": 4294967295,
                        "reg_68": 4294967295,
                        "reg_69": 4294967295,
                        "reg_6a": 4294967295,
                        "reg_6b": 4294967295,
                        "reg_6c": 4294967295,
                        "reg_6d": 4294967295,
                        "reg_6e": 4294967295,
                        "reg_6f": 4294967295
                    },
                    {
                        "address": 25,
                        "reg_01": 235736333,
                        "reg_02": 269029469,
                        "reg_03": 7487235,
                        "reg_06": 76416,
                        "reg_07": 2503999488,
                        "reg_10": 0,
                        "reg_11": 0,
                        "reg_12": 0,
                        "reg_13": 0,
                        "reg_14": 0,
                        "reg_15": 0,
                        "reg_16": 0,
                        "reg_17": 0,
                        "reg_20": 3840,
                        "reg_21": 68,
                        "reg_22": 2,
                        "reg_23": 9,
                        "reg_40": 0,
                        "reg_41": 0,
                        "reg_42": 0,
                        "reg_43": 0,
                        "reg_44": 0,
                        "reg_45": 0,
                        "reg_46": 0,
                        "reg_47": 0,
                        "reg_48": 0,
                        "reg_49": 0,
                        "reg_4a": 0,
                        "reg_4b": 0,
                        "reg_4c": 0,
                        "reg_4d": 0,
                        "reg_4e": 0,
                        "reg_4f": 0,
                        "reg_50": 0,
                        "reg_51": 0,
                        "reg_52": 0,
                        "reg_53": 0,
                        "reg_54": 0,
                        "reg_55": 0,
                        "reg_56": 0,
                        "reg_57": 0,
                        "reg_58": 0,
                        "reg_59": 0,
                        "reg_5a": 0,
                        "reg_5b": 0,
                        "reg_5c": 0,
                        "reg_5d": 0,
                        "reg_5e": 0,
                        "reg_5f": 0,
                        "reg_60": 4294967295,
                        "reg_61": 4294967295,
                        "reg_62": 4294967295,
                        "reg_63": 4294967295,
                        "reg_64": 4294967295,
                        "reg_65": 4294967295,
                        "reg_66": 4294967295,
                        "reg_67": 4294967295,
                        "reg_68": 4294967295,
                        "reg_69": 4294967295,
                        "reg_6a": 4294967295,
                        "reg_6b": 4294967295,
                        "reg_6c": 4294967295,
                        "reg_6d": 4294967295,
                        "reg_6e": 4294967295,
                        "reg_6f": 4294967295
                    }
                ],
                "hcc": {
                    "address": 2,
                    "regs": [
                        523973,
                        3766583296,
                        2112,
                        1047552,
                        1072694271,
                        1047552,
                        1072694271,
                        1047552,
                        0,
                        969831324,
                        197428,
                        17105922,
                        2281736192,
                        7689557,
                        4293986303,
                        4294967295,
                        0,
                        0
                    ]
                },
                "pos_to_addr": [
                    16,
                    17,
                    18,
                    19,
                    20,
                    21,
                    22,
                    23,
                    24,
                    25
                ],
                "pos_to_id": [
                    0,
                    1,
                    2,
                    3,
                    4,
                    5,
                    6,
                    7,
                    8,
                    9
                ]
            },
            {
                "chips": [
                    {
                        "address": 16,
                        "reg_01": 235736333,
                        "reg_02": 269029477,
                        "reg_03": 7487235,
                        "reg_06": 72834,
                        "reg_07": 2390753280,
                        "reg_10": 0,
                        "reg_11": 0,
                        "reg_12": 0,
                        "reg_13": 0,
                        "reg_14": 0,
                        "reg_15": 0,
                        "reg_16": 0,
                        "reg_17": 0,
                        "reg_20": 7940,
                        "reg_21": 68,
                        "reg_22": 2,
                        "reg_23": 9,
                        "reg_40": 0,
                        "reg_41": 0,
                        "reg_42": 0,
                        "reg_43": 0,
                        "reg_44": 0,
                        "reg_45": 0,
                        "reg_46": 0,
                        "reg_47": 0,
                        "reg_48": 0,
                        "reg_49": 0,
                        "reg_4a": 0,
                        "reg_4b": 0,
                        "reg_4c": 0,
                        "reg_4d": 0,
                        "reg_4e": 0,
                        "reg_4f": 0,
                        "reg_50": 0,
                        "reg_51": 0,
                        "reg_52": 0,
                        "reg_53": 0,
                        "reg_54": 0,
                        "reg_55": 0,
                        "reg_56": 0,
                        "reg_57": 0,
                        "reg_58": 0,
                        "reg_59": 0,
                        "reg_5a": 0,
                        "reg_5b": 0,
                        "reg_5c": 0,
                        "reg_5d": 0,
                        "reg_5e": 0,
                        "reg_5f": 0,
                        "reg_60": 4294967295,
                        "reg_61": 4294967295,
                        "reg_62": 4294967295,
                        "reg_63": 4294967295,
                        "reg_64": 4294967295,
                        "reg_65": 4294967295,
                        "reg_66": 4294967295,
                        "reg_67": 4294967295,
                        "reg_68": 4294967295,
                        "reg_69": 4294967295,
                        "reg_6a": 4294967295,
                        "reg_6b": 4294967295,
                        "reg_6c": 4294967295,
                        "reg_6d": 4294967295,
                        "reg_6e": 4294967295,
                        "reg_6f": 4294967295
                    },
                    {
                        "address": 17,
                        "reg_01": 235736333,
                        "reg_02": 269029457,
                        "reg_03": 7487235,
                        "reg_06": 71168,
                        "reg_07": 2399141888,
                        "reg_10": 0,
                        "reg_11": 0,
                        "reg_12": 0,
                        "reg_13": 0,
                        "reg_14": 0,
                        "reg_15": 0,
                        "reg_16": 0,
                        "reg_17": 0,
                        "reg_20": 7939,
                        "reg_21": 68,
                        "reg_22": 2,
                        "reg_23": 9,
                        "reg_40": 0,
                        "reg_41": 0,
                        "reg_42": 0,
                        "reg_43": 0,
                        "reg_44": 0,
                        "reg_45": 0,
                        "reg_46": 0,
                        "reg_47": 0,
                        "reg_48": 0,
                        "reg_49": 0,
                        "reg_4a": 0,
                        "reg_4b": 0,
                        "reg_4c": 0,
                        "reg_4d": 0,
                        "reg_4e": 0,
                        "reg_4f": 0,
                        "reg_50": 0,
                        "reg_51": 0,
                        "reg_52": 0,
                        "reg_53": 0,
                        "reg_54": 0,
                        "reg_55": 0,
                        "reg_56": 0,
                        "reg_57": 0,
                        "reg_58": 0,
                        "reg_59": 0,
                        "reg_5a": 0,
                        "reg_5b": 0,
                        "reg_5c": 0,
                        "reg_5d": 0,
                        "reg_5e": 0,
                        "reg_5f": 0,
                        "reg_60": 4294967295,
                        "reg_61": 4294967295,
                        "reg_62": 4294967295,
                        "reg_63": 4294967295,
                        "reg_64": 4294967295,
                        "reg_65": 4294967295,
                        "reg_66": 4294967295,
                        "reg_67": 4294967295,
                        "reg_68": 4294967295,
                        "reg_69": 4294967295,
                        "reg_6a": 4294967295,
                        "reg_6b": 4294967295,
                        "reg_6c": 4294967295,
                        "reg_6d": 4294967295,
                        "reg_6e": 4294967295,
                        "reg_6f": 4294967295
                    },
                    {
                        "address": 18,
                        "reg_01": 235736333,
                        "reg_02": 269029460,
                        "reg_03": 7487235,
                        "reg_06": 71424,
                        "reg_07": 2373976064,
                        "reg_10": 0,
                        "reg_11": 0,
                        "reg_12": 0,
                        "reg_13": 0,
                        "reg_14": 0,
                        "reg_15": 0,
                        "reg_16": 0,
                        "reg_17": 0,
                        "reg_20": 7938,
                        "reg_21": 68,
                        "reg_22": 2,
                        "reg_23": 9,
                        "reg_40": 0,
                        "reg_41": 0,
                        "reg_42": 0,
                        "reg_43": 0,
                        "reg_44": 0,
                        "reg_45": 0,
                        "reg_46": 0,
                        "reg_47": 0,
                        "reg_48": 0,
                        "reg_49": 0,
                        "reg_4a": 0,
                        "reg_4b": 0,
                        "reg_4c": 0,
                        "reg_4d": 0,
                        "reg_4e": 0,
                        "reg_4f": 0,
                        "reg_50": 0,
                        "reg_51": 0,
                        "reg_52": 0,
                        "reg_53": 0,
                        "reg_54": 0,
                        "reg_55": 0,
                        "reg_56": 0,
                        "reg_57": 0,
                        "reg_58": 0,
                        "reg_59": 0,
                        "reg_5a": 0,
                        "reg_5b": 0,
                        "reg_5c": 0,
                        "reg_5d": 0,
                        "reg_5e": 0,
                        "reg_5f": 0,
                        "reg_60": 4294967295,
                        "reg_61": 4294967295,
                        "reg_62": 4294967295,
                        "reg_63": 4294967295,
                        "reg_64": 4294967295,
                        "reg_65": 4294967295,
                        "reg_66": 4294967295,
                        "reg_67": 4294967295,
                        "reg_68": 4294967295,
                        "reg_69": 4294967295,
                        "reg_6a": 4294967295,
                        "reg_6b": 4294967295,
                        "reg_6c": 4294967295,
                        "reg_6d": 4294967295,
                        "reg_6e": 4294967295,
                        "reg_6f": 4294967295
                    },
                    {
                        "address": 19,
                        "reg_01": 235736333,
                        "reg_02": 269029466,
                        "reg_03": 7487235,
                        "reg_06": 79360,
                        "reg_07": 2518679552,
                        "reg_10": 0,
                        "reg_11": 0,
                        "reg_12": 0,
                        "reg_13": 0,
                        "reg_14": 0,
                        "reg_15": 0,
                        "reg_16": 0,
                        "reg_17": 0,
                        "reg_20": 7937,
                        "reg_21": 68,
                        "reg_22": 2,
                        "reg_23": 9,
                        "reg_40": 0,
                        "reg_41": 0,
                        "reg_42": 0,
                        "reg_43": 0,
                        "reg_44": 0,
                        "reg_45": 0,
                        "reg_46": 0,
                        "reg_47": 0,
                        "reg_48": 0,
                        "reg_49": 0,
                        "reg_4a": 0,
                        "reg_4b": 0,
                        "reg_4c": 0,
                        "reg_4d": 0,
                        "reg_4e": 0,
                        "reg_4f": 0,
                        "reg_50": 0,
                        "reg_51": 0,
                        "reg_52": 0,
                        "reg_53": 0,
                        "reg_54": 0,
                        "reg_55": 0,
                        "reg_56": 0,
                        "reg_57": 0,
                        "reg_58": 0,
                        "reg_59": 0,
                        "reg_5a": 0,
                        "reg_5b": 0,
                        "reg_5c": 0,
                        "reg_5d": 0,
                        "reg_5e": 0,
                        "reg_5f": 0,
                        "reg_60": 4294967295,
                        "reg_61": 4294967295,
                        "reg_62": 4294967295,
                        "reg_63": 4294967295,
                        "reg_64": 4294967295,
                        "reg_65": 4294967295,
                        "reg_66": 4294967295,
                        "reg_67": 4294967295,
                        "reg_68": 4294967295,
                        "reg_69": 4294967295,
                        "reg_6a": 4294967295,
                        "reg_6b": 4294967295,
                        "reg_6c": 4294967295,
                        "reg_6d": 4294967295,
                        "reg_6e": 4294967295,
                        "reg_6f": 4294967295
                    },
                    {
                        "address": 20,
                        "reg_01": 235736333,
                        "reg_02": 269029440,
                        "reg_03": 7487235,
                        "reg_06": 73232,
                        "reg_07": 2535456768,
                        "reg_10": 0,
                        "reg_11": 0,
                        "reg_12": 0,
                        "reg_13": 0,
                        "reg_14": 0,
                        "reg_15": 0,
                        "reg_16": 0,
                        "reg_17": 0,
                        "reg_20": 3840,
                        "reg_21": 68,
                        "reg_22": 2,
                        "reg_23": 9,
                        "reg_40": 0,
                        "reg_41": 0,
                        "reg_42": 0,
                        "reg_43": 0,
                        "reg_44": 0,
                        "reg_45": 0,
                        "reg_46": 0,
                        "reg_47": 0,
                        "reg_48": 0,
                        "reg_49": 0,
                        "reg_4a": 0,
                        "reg_4b": 0,
                        "reg_4c": 0,
                        "reg_4d": 0,
                        "reg_4e": 0,
                        "reg_4f": 0,
                        "reg_50": 0,
                        "reg_51": 0,
                        "reg_52": 0,
                        "reg_53": 0,
                        "reg_54": 0,
                        "reg_55": 0,
                        "reg_56": 0,
                        "reg_57": 0,
                        "reg_58": 0,
                        "reg_59": 0,
                        "reg_5a": 0,
                        "reg_5b": 0,
                        "reg_5c": 0,
                        "reg_5d": 0,
                        "reg_5e": 0,
                        "reg_5f": 0,
                        "reg_60": 4294967295,
                        "reg_61": 4294967295,
                        "reg_62": 4294967295,
                        "reg_63": 4294967295,
                        "reg_64": 4294967295,
                        "reg_65": 4294967295,
                        "reg_66": 4294967295,
                        "reg_67": 4294967295,
                        "reg_68": 4294967295,
                        "reg_69": 4294967295,
                        "reg_6a": 4294967295,
                        "reg_6b": 4294967295,
                        "reg_6c": 4294967295,
                        "reg_6d": 4294967295,
                        "reg_6e": 4294967295,
                        "reg_6f": 4294967295
                    },
                    {
                        "address": 21,
                        "reg_01": 235736333,
                        "reg_02": 269029450,
                        "reg_03": 7487235,
                        "reg_06": 73280,
                        "reg_07": 2520776704,
                        "reg_10": 0,
                        "reg_11": 0,
                        "reg_12": 0,
                        "reg_13": 0,
                        "reg_14": 0,
                        "reg_15": 0,
                        "reg_16": 0,
                        "reg_17": 0,
                        "reg_20": 7940,
                        "reg_21": 68,
                        "reg_22": 2,
                        "reg_23": 9,
                        "reg_40": 0,
                        "reg_41": 0,
                        "reg_42": 0,
                        "reg_43": 0,
                        "reg_44": 0,
                        "reg_45": 0,
                        "reg_46": 0,
                        "reg_47": 0,
                        "reg_48": 0,
                        "reg_49": 0,
                        "reg_4a": 0,
                        "reg_4b": 0,
                        "reg_4c": 0,
                        "reg_4d": 0,
                        "reg_4e": 0,
                        "reg_4f": 0,
                        "reg_50": 0,
                        "reg_51": 0,
                        "reg_52": 0,
                        "reg_53": 0,
                        "reg_54": 0,
                        "reg_55": 0,
                        "reg_56": 0,
                        "reg_57": 0,
                        "reg_58": 0,
                        "reg_59": 0,
                        "reg_5a": 0,
                        "reg_5b": 0,
                        "reg_5c": 0,
                        "reg_5d": 0,
                        "reg_5e": 0,
                        "reg_5f": 0,
                        "reg_60": 4294967295,
                        "reg_61": 4294967295,
                        "reg_62": 4294967295,
                        "reg_63": 4294967295,
                        "reg_64": 4294967295,
                        "reg_65": 4294967295,
                        "reg_66": 4294967295,
                        "reg_67": 4294967295,
                        "reg_68": 4294967295,
                        "reg_69": 4294967295,
                        "reg_6a": 4294967295,
                        "reg_6b": 4294967295,
                        "reg_6c": 4294967295,
                        "reg_6d": 4294967295,
                        "reg_6e": 4294967295,
                        "reg_6f": 4294967295
                    },
                    {
                        "address": 22,
                        "reg_01": 235736333,
                        "reg_02": 269029455,
                        "reg_03": 7487235,
                        "reg_06": 72960,
                        "reg_07": 2269118464,
                        "reg_10": 0,
                        "reg_11": 0,
                        "reg_12": 0,
                        "reg_13": 0,
                        "reg_14": 0,
                        "reg_15": 0,
                        "reg_16": 0,
                        "reg_17": 0,
                        "reg_20": 7939,
                        "reg_21": 68,
                        "reg_22": 2,
                        "reg_23": 9,
                        "reg_40": 0,
                        "reg_41": 0,
                        "reg_42": 0,
                        "reg_43": 0,
                        "reg_44": 0,
                        "reg_45": 0,
                        "reg_46": 0,
                        "reg_47": 0,
                        "reg_48": 0,
                        "reg_49": 0,
                        "reg_4a": 0,
                        "reg_4b": 0,
                        "reg_4c": 0,
                        "reg_4d": 0,
                        "reg_4e": 0,
                        "reg_4f": 0,
                        "reg_50": 0,
                        "reg_51": 0,
                        "reg_52": 0,
                        "reg_53": 0,
                        "reg_54": 0,
                        "reg_55": 0,
                        "reg_56": 0,
                        "reg_57": 0,
                        "reg_58": 0,
                        "reg_59": 0,
                        "reg_5a": 0,
                        "reg_5b": 0,
                        "reg_5c": 0,
                        "reg_5d": 0,
                        "reg_5e": 0,
                        "reg_5f": 0,
                        "reg_60": 4294967295,
                        "reg_61": 4294967295,
                        "reg_62": 4294967295,
                        "reg_63": 4294967295,
                        "reg_64": 4294967295,
                        "reg_65": 4294967295,
                        "reg_66": 4294967295,
                        "reg_67": 4294967295,
                        "reg_68": 4294967295,
                        "reg_69": 4294967295,
                        "reg_6a": 4294967295,
                        "reg_6b": 4294967295,
                        "reg_6c": 4294967295,
                        "reg_6d": 4294967295,
                        "reg_6e": 4294967295,
                        "reg_6f": 4294967295
                    },
                    {
                        "address": 23,
                        "reg_01": 235736333,
                        "reg_02": 269029448,
                        "reg_03": 7487235,
                        "reg_06": 71296,
                        "reg_07": 2367684608,
                        "reg_10": 0,
                        "reg_11": 0,
                        "reg_12": 0,
                        "reg_13": 0,
                        "reg_14": 0,
                        "reg_15": 0,
                        "reg_16": 0,
                        "reg_17": 0,
                        "reg_20": 7938,
                        "reg_21": 68,
                        "reg_22": 2,
                        "reg_23": 9,
                        "reg_40": 0,
                        "reg_41": 0,
                        "reg_42": 0,
                        "reg_43": 0,
                        "reg_44": 0,
                        "reg_45": 0,
                        "reg_46": 0,
                        "reg_47": 0,
                        "reg_48": 0,
                        "reg_49": 0,
                        "reg_4a": 0,
                        "reg_4b": 0,
                        "reg_4c": 0,
                        "reg_4d": 0,
                        "reg_4e": 0,
                        "reg_4f": 0,
                        "reg_50": 0,
                        "reg_51": 0,
                        "reg_52": 0,
                        "reg_53": 0,
                        "reg_54": 0,
                        "reg_55": 0,
                        "reg_56": 0,
                        "reg_57": 0,
                        "reg_58": 0,
                        "reg_59": 0,
                        "reg_5a": 0,
                        "reg_5b": 0,
                        "reg_5c": 0,
                        "reg_5d": 0,
                        "reg_5e": 0,
                        "reg_5f": 0,
                        "reg_60": 4294967295,
                        "reg_61": 4294967295,
                        "reg_62": 4294967295,
                        "reg_63": 4294967295,
                        "reg_64": 4294967295,
                        "reg_65": 4294967295,
                        "reg_66": 4294967295,
                        "reg_67": 4294967295,
                        "reg_68": 4294967295,
                        "reg_69": 4294967295,
                        "reg_6a": 4294967295,
                        "reg_6b": 4294967295,
                        "reg_6c": 4294967295,
                        "reg_6d": 4294967295,
                        "reg_6e": 4294967295,
                        "reg_6f": 4294967295
                    },
                    {
                        "address": 24,
                        "reg_01": 235736333,
                        "reg_02": 269029458,
                        "reg_03": 7487235,
                        "reg_06": 72208,
                        "reg_07": 2533883904,
                        "reg_10": 0,
                        "reg_11": 0,
                        "reg_12": 0,
                        "reg_13": 0,
                        "reg_14": 0,
                        "reg_15": 0,
                        "reg_16": 0,
                        "reg_17": 0,
                        "reg_20": 7937,
                        "reg_21": 68,
                        "reg_22": 2,
                        "reg_23": 9,
                        "reg_40": 0,
                        "reg_41": 0,
                        "reg_42": 0,
                        "reg_43": 0,
                        "reg_44": 0,
                        "reg_45": 0,
                        "reg_46": 0,
                        "reg_47": 0,
                        "reg_48": 0,
                        "reg_49": 0,
                        "reg_4a": 0,
                        "reg_4b": 0,
                        "reg_4c": 0,
                        "reg_4d": 0,
                        "reg_4e": 0,
                        "reg_4f": 0,
                        "reg_50": 0,
                        "reg_51": 0,
                        "reg_52": 0,
                        "reg_53": 0,
                        "reg_54": 0,
                        "reg_55": 0,
                        "reg_56": 0,
                        "reg_57": 0,
                        "reg_58": 0,
                        "reg_59": 0,
                        "reg_5a": 0,
                        "reg_5b": 0,
                        "reg_5c": 0,
                        "reg_5d": 0,
                        "reg_5e": 0,
                        "reg_5f": 0,
                        "reg_60": 4294967295,
                        "reg_61": 4294967295,
                        "reg_62": 4294967295,
                        "reg_63": 4294967295,
                        "reg_64": 4294967295,
                        "reg_65": 4294967295,
                        "reg_66": 4294967295,
                        "reg_67": 4294967295,
                        "reg_68": 4294967295,
                        "reg_69": 4294967295,
                        "reg_6a": 4294967295,
                        "reg_6b": 4294967295,
                        "reg_6c": 4294967295,
                        "reg_6d": 4294967295,
                        "reg_6e": 4294967295,
                        "reg_6f": 4294967295
                    },
                    {
                        "address": 25,
                        "reg_01": 235736333,
                        "reg_02": 269029469,
                        "reg_03": 7487235,
                        "reg_06": 76416,
                        "reg_07": 2503999488,
                        "reg_10": 0,
                        "reg_11": 0,
                        "reg_12": 0,
                        "reg_13": 0,
                        "reg_14": 0,
                        "reg_15": 0,
                        "reg_16": 0,
                        "reg_17": 0,
                        "reg_20": 3840,
                        "reg_21": 68,
                        "reg_22": 2,
                        "reg_23": 9,
                        "reg_40": 0,
                        "reg_41": 0,
                        "reg_42": 0,
                        "reg_43": 0,
                        "reg_44": 0,
                        "reg_45": 0,
                        "reg_46": 0,
                        "reg_47": 0,
                        "reg_48": 0,
                        "reg_49": 0,
                        "reg_4a": 0,
                        "reg_4b": 0,
                        "reg_4c": 0,
                        "reg_4d": 0,
                        "reg_4e": 0,
                        "reg_4f": 0,
                        "reg_50": 0,
                        "reg_51": 0,
                        "reg_52": 0,
                        "reg_53": 0,
                        "reg_54": 0,
                        "reg_55": 0,
                        "reg_56": 0,
                        "reg_57": 0,
                        "reg_58": 0,
                        "reg_59": 0,
                        "reg_5a": 0,
                        "reg_5b": 0,
                        "reg_5c": 0,
                        "reg_5d": 0,
                        "reg_5e": 0,
                        "reg_5f": 0,
                        "reg_60": 4294967295,
                        "reg_61": 4294967295,
                        "reg_62": 4294967295,
                        "reg_63": 4294967295,
                        "reg_64": 4294967295,
                        "reg_65": 4294967295,
                        "reg_66": 4294967295,
                        "reg_67": 4294967295,
                        "reg_68": 4294967295,
                        "reg_69": 4294967295,
                        "reg_6a": 4294967295,
                        "reg_6b": 4294967295,
                        "reg_6c": 4294967295,
                        "reg_6d": 4294967295,
                        "reg_6e": 4294967295,
                        "reg_6f": 4294967295
                    }
                ],
                "hcc": {
                    "address": 9,
                    "regs": [
                        523973,
                        3768681216,
                        2112,
                        1047552,
                        1072694271,
                        1047552,
                        1072694271,
                        1047552,
                        0,
                        969831324,
                        197428,
                        17105922,
                        2281736192,
                        7689557,
                        4293986303,
                        4294967295,
                        0,
                        0
                    ]
                },
                "pos_to_addr": [
                    16,
                    17,
                    18,
                    19,
                    20,
                    21,
                    22,
                    23,
                    24,
                    25
                ],
                "pos_to_id": [
                    0,
                    1,
                    2,
                    3,
                    4,
                    5,
                    6,
                    7,
                    8,
                    9
                ]
            }
        ]
    },
    "scan_info": {
        "BC ID reset frequency": 0,
        "COM_DELAY": 200,
        "Config frequency": 0,
        "L1A per loop": 16,
        "PULSE_DELAY": 129,
        "Soft reset frequency": 1000,
        "TRIG_DELAY": 94,
        "abc_busy_limit": 5,
        "abort_on_l0id_mismatch": 0,
        "burst max timeouts": 6,
        "burst maxtrigs": 1000000,
        "burst ntrigs": 32,
        "burst target": 10,
        "burst trtype": 39,
        "burst type": 100,
        "check_l0id_offset": 0,
        "continue_event_count_between_bursts": 0,
        "debug level": 0,
        "do action DCS": 1,
        "do autostop": 1,
        "do calibration loop": 0,
        "do fill evtree": 0,
        "do fits": 1,
        "do mask by cal": 0,
        "do mask test": 0,
        "do pre burst": 0,
        "do threaded burst": 1,
        "do var ntrigs": 0,
        "do_check_l0id": 0,
        "external_trigger_source": 255,
        "fill_delta_t": 1,
        "fill_timebin_hit_data": 0,
        "fill_tree_counter": 0,
        "one_bank": 0,
        "pack_hitmap_bits": 0,
        "paf": 3,
        "process_in_callback": 0,
        "pull_event_by_l0": 0,
        "rate_limit_delay": 0,
        "read_tdc_data": 0,
        "reset_on_l0id_mismatch": 0,
        "save_event_hit_data": 0,
        "save_raw_event_data": 0,
        "save_trigger_data": 0,
        "send signals": 0,
        "send_raw_event_data": 0,
        "send_signal_event_offset": 0,
        "signal_filler_events": 0,
        "throw away triggers": 0,
        "trigger_single_packet": 1,
        "trlim": 0,
        "ttc_busy_limit": 5,
        "wait_external_trigger_timeout": 5
    },
    "scan_points": {
        "scan_type": 3,
        "scan_type_string": "STROBE DELAY",
        "scan_values": [
            0.0,
            1.0,
            2.0,
            3.0,
            4.0,
            5.0,
            6.0,
            7.0,
            8.0,
            9.0,
            10.0,
            11.0,
            12.0,
            13.0,
            14.0,
            15.0,
            16.0,
            17.0,
            18.0,
            19.0,
            20.0,
            21.0,
            22.0,
            23.0,
            24.0,
            25.0,
            26.0,
            27.0,
            28.0,
            29.0,
            30.0,
            31.0,
            32.0,
            33.0,
            34.0,
            35.0,
            36.0,
            37.0,
            38.0,
            39.0,
            40.0,
            41.0,
            42.0,
            43.0,
            44.0,
            45.0,
            46.0,
            47.0,
            48.0,
            49.0,
            50.0,
            51.0,
            52.0,
            53.0,
            54.0,
            55.0,
            56.0,
            57.0,
            58.0,
            59.0,
            60.0,
            61.0,
            62.0,
            63.0
        ]
    },
    "schema_version": 1,
    "system_info": {
        "GIT URL": "https://gitlab.cern.ch/atlas-itk-strips-daq/itsdaq-sw.git@fc502eefee448b9932f7f34979a435c3e75c0fdc",
        "GIT commit date": "2018-04-03 09:18:07 +0000 (Tue, 03 Apr 2018)",
        "GIT info extracted": "2018-04-03 16:11:42 +0000 (Tue, 03 Apr 2018)",
        "GIT modified": "not modified",
        "GIT revision": "3730",
        "dedication": "ABCN-25/ABC130 with or without BCC/HCC, built for HSIO",
        "firmware": "b199"
    }
}
