# Run with trigger type 39
# Using bits: COM (5011) L0 (0422) L1 (0844) R3 (a088)
11 0
# L0ID reset so we know how to ask for data (a6)
2 5011
2 0
2 5011
4 0
4 5011
0 0
50 0
# Write configuration bit 0 of register 0
#  1011 1110 1111 1111 1100 0000 0100
#  0000 0000 0000 0000 0000 0000 0000 01
2 5011
2 0
10 5011
2 0
20 5011
14 0
2 5011
62 0
2 5011
# The requisite delay
14 0
# Finally the L0
2 422
2 0
# Write configuration bit 0 of register 0
#  1011 1110 1111 1111 1100 0000 0100
#  0000 0000 0000 0000 0000 0000 0000 01
2 5011
2 0
10 5011
2 0
20 5011
14 0
2 5011
62 0
2 5011
# The requisite delay
14 0
# Finally the L0
2 422
2 0
# Write configuration bit 0 of register 0
#  1011 1110 1111 1111 1100 0000 0100
#  0000 0000 0000 0000 0000 0000 0000 01
2 5011
2 0
10 5011
2 0
20 5011
14 0
2 5011
62 0
2 5011
# The requisite delay
14 0
# Finally the L0
2 422
2 0
# Write configuration bit 0 of register 0
#  1011 1110 1111 1111 1100 0000 0100
#  0000 0000 0000 0000 0000 0000 0000 01
2 5011
2 0
10 5011
2 0
20 5011
14 0
2 5011
62 0
2 5011
# The requisite delay
14 0
# Finally the L0
2 422
10 0
# Write configuration bit 0 of register 0
#  1011 1110 1111 1111 1100 0000 0100
#  0000 0000 0000 0000 0000 0000 0000 01
2 5011
2 0
10 5011
2 0
20 5011
14 0
2 5011
62 0
2 5011
# The requisite delay
14 0
# Finally the L0
2 422
2 0
# Write configuration bit 0 of register 0
#  1011 1110 1111 1111 1100 0000 0100
#  0000 0000 0000 0000 0000 0000 0000 01
2 5011
2 0
10 5011
2 0
20 5011
14 0
2 5011
62 0
2 5011
# The requisite delay
14 0
# Finally the L0
2 422
2 0
# Write configuration bit 0 of register 0
#  1011 1110 1111 1111 1100 0000 0100
#  0000 0000 0000 0000 0000 0000 0000 01
2 5011
2 0
10 5011
2 0
20 5011
14 0
2 5011
62 0
2 5011
# The requisite delay
14 0
# Finally the L0
2 422
2 0
# Write configuration bit 0 of register 0
#  1011 1110 1111 1111 1100 0000 0100
#  0000 0000 0000 0000 0000 0000 0000 01
2 5011
2 0
10 5011
2 0
20 5011
14 0
2 5011
62 0
2 5011
# The requisite delay
14 0
# Finally the L0
2 422
2 0
# Write configuration bit 0 of register 0
#  1011 1110 1111 1111 1100 0000 0100
#  0000 0000 0000 0000 0000 0000 0000 01
2 5011
2 0
10 5011
2 0
20 5011
14 0
2 5011
62 0
2 5011
# The requisite delay
14 0
# Finally the L0
2 422
2 0
# Write configuration bit 0 of register 0
#  1011 1110 1111 1111 1100 0000 0100
#  0000 0000 0000 0000 0000 0000 0000 01
2 5011
2 0
10 5011
2 0
20 5011
14 0
2 5011
62 0
2 5011
# The requisite delay
14 0
# Finally the L0
2 422
2 0
# Write configuration bit 0 of register 0
#  1011 1110 1111 1111 1100 0000 0100
#  0000 0000 0000 0000 0000 0000 0000 01
2 5011
2 0
10 5011
2 0
20 5011
14 0
2 5011
62 0
2 5011
# The requisite delay
14 0
# Finally the L0
2 422
2 0
# Write configuration bit 0 of register 0
#  1011 1110 1111 1111 1100 0000 0100
#  0000 0000 0000 0000 0000 0000 0000 01
2 5011
2 0
10 5011
2 0
20 5011
14 0
2 5011
62 0
2 5011
# The requisite delay
14 0
# Finally the L0
2 422
2 0
# Write configuration bit 0 of register 0
#  1011 1110 1111 1111 1100 0000 0100
#  0000 0000 0000 0000 0000 0000 0000 01
2 5011
2 0
10 5011
2 0
20 5011
14 0
2 5011
62 0
2 5011
# The requisite delay
14 0
# Finally the L0
2 422
2 0
# Write configuration bit 0 of register 0
#  1011 1110 1111 1111 1100 0000 0100
#  0000 0000 0000 0000 0000 0000 0000 01
2 5011
2 0
10 5011
2 0
20 5011
14 0
2 5011
62 0
2 5011
# The requisite delay
14 0
# Finally the L0
2 422
2 0
# Write configuration bit 0 of register 0
#  1011 1110 1111 1111 1100 0000 0100
#  0000 0000 0000 0000 0000 0000 0000 01
2 5011
2 0
10 5011
2 0
20 5011
14 0
2 5011
62 0
2 5011
# The requisite delay
14 0
# Finally the L0
2 422
2 0
# Write configuration bit 0 of register 0
#  1011 1110 1111 1111 1100 0000 0100
#  0000 0000 0000 0000 0000 0000 0000 01
2 5011
2 0
10 5011
2 0
20 5011
14 0
2 5011
62 0
2 5011
# The requisite delay
14 0
# Finally the L0
2 422
2 0
# 0x600 for L1[0]
4 844
2 0
16 0
4 0
# L1[1]
4 844
2 0
14 0
2 844
4 0
# L1[2]
4 844
2 0
12 0
2 844
2 0
4 0
# L1[3]
4 844
2 0
12 0
4 844
4 0
# L1[4]
4 844
2 0
10 0
2 844
4 0
10 0
# L1[5]
4 844
2 0
10 0
2 844
2 0
2 844
10 0
# L1[6]
4 844
2 0
10 0
4 844
2 0
10 0
# L1[7]
4 844
2 0
10 0
6 844
10 0
# L1[8]
4 844
2 0
8 0
2 844
6 0
10 0
# L1[9]
4 844
2 0
8 0
2 844
4 0
2 844
10 0
# L1[10]
4 844
2 0
8 0
2 844
2 0
2 844
2 0
10 0
# L1[11]
4 844
2 0
8 0
2 844
2 0
4 844
10 0
# L1[12]
4 844
2 0
8 0
4 844
4 0
10 0
# L1[13]
4 844
2 0
8 0
4 844
2 0
2 844
10 0
# L1[14]
4 844
2 0
8 0
6 844
2 0
10 0
# L1[15]
4 844
2 0
8 0
8 844
10 0
