#
# exception list for UKB
#
# serial_number chip parameter value comment
#
20220330200019 8 5 20.0     # LGS chip S10
20220330200079 1 5 20.0     # LGS chip S01
20220330200141 8 5 20.0     # LGS chip S10
20220330200277 8 5 20.0     # LGS chip S10
20220330200314 3 5 20.0     # LGS chip S13
20220330200328 0 5 20.0     # LGS chip M00
20220330200329 11 5 20.0    # LGS chip E13
20220330200346 10 5 20.0    # LGS chip S12
20220330200366 4 5 20.0     # LGS chip S04
20220330200397 11 5 20.0    # LGS chip E13
20220330200399 11 5 20.0    # LGS chip E13
20220330200413 5 5 20.0     # LGS chip E05
20220330200436 6 5 20.0     # LGS chip M08
20220330200438 5 5 20.0     # LGS chip E05
20220330200475 7 5 20.0     # LGS chip S09
20220330200477 8 5 20.0     # LGS chip S10
20220330200492 4 5 20.0     # LGS chip S04
20220330200493 11 5 20.0    # LGS chip E13
20220330200497 11 5 20.0    # LGS chip E13
20220330200539 11 5 20.0    # LGS chip E13

